<svg width="25" height="20" viewBox="0 0 25 20" fill="none" xmlns="http://www.w3.org/2000/svg">
<path d="M0 0.991211H25" stroke="black" stroke-width="1.6" stroke-miterlimit="10"/>
<path d="M0 9.52637H25" stroke="black" stroke-width="1.6" stroke-miterlimit="10"/>
<path d="M0 18.4365H25" stroke="black" stroke-width="1.6" stroke-miterlimit="10"/>
</svg>
