<svg width="19" height="20" viewBox="0 0 19 20" fill="none" xmlns="http://www.w3.org/2000/svg">
<path d="M0.661133 1L18.3388 18.6777" stroke="white" stroke-width="1.6" stroke-miterlimit="10"/>
<path d="M0.661133 19L18.3388 1.32233" stroke="white" stroke-width="1.6" stroke-miterlimit="10"/>
</svg>
