<svg width="300" height="243" viewBox="0 0 300 243" fill="none" xmlns="http://www.w3.org/2000/svg">
<path d="M152.755 6.77637C63.3673 6.77637 0 35.0162 0 124.404C0 175.832 20.9694 207.134 55.7908 224.506C75.3827 234.225 99.3367 239.583 126.352 241.572C134.847 242.185 143.648 242.491 152.755 242.491C242.066 242.491 300 213.792 300 124.404C300 35.0927 242.143 6.77637 152.755 6.77637Z" fill="#8F78F3"/>
<path opacity="0.35" d="M91.3775 163.435C42.551 151.573 58.4694 128.69 34.2857 102.746C22.7296 90.348 12.8571 84.9909 5.66327 82.7715C1.9898 94.9399 0 108.715 0 124.404C0 175.833 20.9694 207.134 55.7908 224.506C75.3827 234.226 99.3367 239.583 126.352 241.573C134.847 242.185 143.648 242.491 152.755 242.491C242.066 242.491 300 213.792 300 124.404C300 118.511 299.77 112.848 299.235 107.414C296.097 111.317 292.73 116.521 289.133 123.18C256.224 183.792 140.204 175.297 91.3775 163.435Z" fill="#7567D3"/>
<path d="M171.582 167.797C171.276 169.404 170.128 170.552 168.98 170.323C167.832 170.093 167.143 168.639 167.449 167.032C167.755 165.425 168.903 164.277 170.051 164.506C171.199 164.659 171.888 166.19 171.582 167.797Z" fill="url(#paint0_linear)"/>
<path d="M172.118 171.699C170.511 172.006 168.98 171.393 168.827 170.245C168.597 169.097 169.745 167.949 171.352 167.643C172.96 167.337 174.49 167.949 174.643 169.097C174.873 170.245 173.725 171.393 172.118 171.699Z" fill="url(#paint1_linear)"/>
<path d="M169.286 173.842C168.138 172.617 167.908 171.01 168.75 170.245C169.592 169.48 171.199 169.786 172.347 171.01C173.495 172.235 173.725 173.842 172.883 174.607C172.041 175.372 170.434 175.066 169.286 173.842Z" fill="url(#paint2_linear)"/>
<path d="M165.995 172.618C166.377 171.01 167.678 169.939 168.75 170.245C169.898 170.551 170.434 172.082 170.051 173.689C169.668 175.296 168.367 176.368 167.296 176.061C166.148 175.679 165.612 174.225 165.995 172.618Z" fill="url(#paint3_linear)"/>
<path d="M165.306 169.174C166.837 168.638 168.444 169.174 168.75 170.322C169.133 171.393 168.138 172.694 166.531 173.23C165 173.766 163.393 173.23 163.087 172.082C162.781 170.934 163.776 169.633 165.306 169.174Z" fill="url(#paint4_linear)"/>
<path d="M167.908 166.726C169.133 167.797 169.592 169.405 168.826 170.246C168.061 171.165 166.454 171.012 165.23 169.94C164.005 168.869 163.546 167.262 164.311 166.42C165 165.502 166.607 165.655 167.908 166.726Z" fill="url(#paint5_linear)"/>
<path d="M199.133 183.18C180.536 191.062 164.235 188.919 162.092 187.848C162.015 187.848 162.015 187.771 162.015 187.771C161.48 187.465 161.25 186.623 161.327 185.475C161.403 179.047 168.98 161.904 185.051 155.093C202.117 147.822 217.347 149.43 223.24 154.481C223.24 154.481 223.24 154.481 223.316 154.557C223.469 154.71 223.852 155.093 224.235 155.475C224.311 155.552 224.311 155.629 224.388 155.629C224.541 155.858 224.694 156.088 224.847 156.241C225.23 157.083 218.112 175.144 199.133 183.18Z" fill="#3F51AA"/>
<path d="M203.112 177.439C203.112 177.439 197.296 159.302 202.653 152.031C208.01 144.761 207.934 141.394 207.934 141.394C207.934 141.394 213.597 153.179 212.832 160.144C212.066 167.184 210.765 176.215 210.765 176.215L203.112 177.439Z" fill="#3F51A9"/>
<path d="M210.689 148.205C210.306 150.118 209.005 151.419 207.627 151.19C206.326 150.96 205.485 149.2 205.867 147.363C206.25 145.45 207.551 144.149 208.928 144.378C210.306 144.531 211.071 146.292 210.689 148.205Z" fill="url(#paint6_linear)"/>
<path d="M211.301 152.797C209.387 153.179 207.704 152.414 207.398 151.113C207.092 149.812 208.469 148.434 210.306 148.052C212.219 147.669 213.903 148.434 214.209 149.736C214.515 151.037 213.214 152.414 211.301 152.797Z" fill="url(#paint7_linear)"/>
<path d="M208.01 155.245C206.709 153.868 206.403 151.955 207.398 151.036C208.392 150.118 210.229 150.5 211.53 151.878C212.831 153.256 213.137 155.169 212.142 156.087C211.224 157.006 209.387 156.623 208.01 155.245Z" fill="url(#paint8_linear)"/>
<path d="M204.184 153.792C204.643 151.955 206.097 150.731 207.398 151.037C208.699 151.343 209.388 153.18 208.852 155.017C208.393 156.853 206.939 158.078 205.638 157.772C204.413 157.389 203.724 155.629 204.184 153.792Z" fill="url(#paint9_linear)"/>
<path d="M203.418 149.736C205.255 149.124 207.092 149.736 207.474 151.037C207.857 152.338 206.709 153.868 204.872 154.404C203.036 155.016 201.199 154.404 200.816 153.103C200.434 151.802 201.581 150.348 203.418 149.736Z" fill="url(#paint10_linear)"/>
<path d="M206.403 146.904C207.857 148.129 208.316 149.966 207.474 151.037C206.632 152.032 204.719 151.879 203.265 150.654C201.811 149.43 201.352 147.593 202.194 146.522C203.036 145.527 204.949 145.68 206.403 146.904Z" fill="url(#paint11_linear)"/>
<path d="M207.321 153.256C208.589 153.256 209.617 152.228 209.617 150.96C209.617 149.692 208.589 148.664 207.321 148.664C206.053 148.664 205.025 149.692 205.025 150.96C205.025 152.228 206.053 153.256 207.321 153.256Z" fill="url(#paint12_linear)"/>
<path d="M194.158 171.776C194.158 171.776 182.449 156.7 173.418 157.082C164.388 157.388 161.633 155.475 161.633 155.475C161.633 155.475 168.138 166.802 174.413 170.092C180.612 173.46 188.801 177.439 188.801 177.439L194.158 171.776Z" fill="#3F51A9"/>
<path d="M214.267 149.881C215.349 149.687 215.862 147.506 215.412 145.01C214.963 142.514 213.722 140.648 212.641 140.843C211.559 141.038 211.046 143.219 211.496 145.715C211.945 148.211 213.186 150.076 214.267 149.881Z" fill="#333B72"/>
<path d="M213.156 162.475C213.762 161.827 213.077 160.201 211.626 158.845C210.175 157.488 208.507 156.914 207.901 157.562C207.295 158.211 207.98 159.836 209.431 161.193C210.882 162.549 212.55 163.123 213.156 162.475Z" fill="#333B72"/>
<path d="M220.605 159.011C222.27 157.155 222.957 155.055 222.139 154.321C221.321 153.587 219.308 154.497 217.643 156.353C215.977 158.209 215.29 160.309 216.108 161.043C216.926 161.777 218.939 160.867 220.605 159.011Z" fill="#333B72"/>
<path d="M220.77 150.889C222.072 149.118 222.492 147.216 221.708 146.64C220.925 146.064 219.235 147.033 217.933 148.804C216.632 150.575 216.212 152.478 216.995 153.054C217.778 153.629 219.468 152.66 220.77 150.889Z" fill="#333B72"/>
<path d="M212.534 154.656C213.161 154.089 212.636 152.485 211.36 151.075C210.085 149.664 208.543 148.979 207.915 149.546C207.288 150.113 207.814 151.717 209.089 153.127C210.365 154.538 211.907 155.223 212.534 154.656Z" fill="#333B72"/>
<path d="M212.985 170.399L212.143 170.093C216.199 159.685 213.214 146.981 213.214 146.828L214.133 146.598C214.056 146.751 217.117 159.761 212.985 170.399Z" fill="#333B72"/>
<path d="M215.051 160.143H214.133C214.056 156.852 211.454 153.561 211.377 153.561L212.066 152.949C212.219 153.102 214.974 156.546 215.051 160.143Z" fill="#333B72"/>
<path d="M215.128 159.532L214.209 159.302C214.668 157.389 217.041 151.802 217.117 151.573L217.959 151.955C217.959 152.032 215.51 157.695 215.128 159.532Z" fill="#333B72"/>
<path d="M214.745 163.587L213.903 163.128C214.286 162.363 216.199 159.608 216.276 159.531L217.041 160.067C216.352 161.062 215.051 162.975 214.745 163.587Z" fill="#333B72"/>
<path d="M214.362 165.654L213.444 165.577C213.673 162.363 211.148 161.292 211.148 161.292L211.531 160.45C211.531 160.373 214.592 161.751 214.362 165.654Z" fill="#333B72"/>
<path d="M156.975 169.364C157.938 168.835 157.729 166.604 156.508 164.382C155.286 162.159 153.516 160.786 152.552 161.316C151.589 161.845 151.799 164.076 153.02 166.298C154.241 168.521 156.012 169.894 156.975 169.364Z" fill="#3F51AA"/>
<path d="M162.517 179.195C162.691 178.11 160.836 176.91 158.373 176.515C155.911 176.12 153.774 176.679 153.6 177.764C153.426 178.849 155.281 180.049 157.743 180.444C160.205 180.839 162.343 180.28 162.517 179.195Z" fill="#3F51AA"/>
<path d="M156.895 173.553C157.141 172.612 155.618 171.398 153.492 170.841C151.366 170.283 149.443 170.593 149.196 171.534C148.949 172.474 150.473 173.688 152.599 174.246C154.725 174.803 156.648 174.493 156.895 173.553Z" fill="#3F51AA"/>
<path d="M163.03 168.661C163.134 166.762 162.534 165.185 161.69 165.139C160.846 165.093 160.077 166.595 159.973 168.494C159.87 170.393 160.47 171.97 161.314 172.016C162.158 172.062 162.926 170.56 163.03 168.661Z" fill="#3F51AA"/>
<path d="M170.893 184.557L171.352 183.716C161.633 178.129 155.969 166.42 155.893 166.267L155.051 166.649C155.128 166.802 160.944 178.818 170.893 184.557Z" fill="#3F51AA"/>
<path d="M162.781 177.899L163.546 177.363C161.48 174.761 161.48 170.552 161.48 170.476H160.561C160.561 170.629 160.561 174.991 162.781 177.899Z" fill="#3F51AA"/>
<path d="M162.398 177.44L162.934 176.675C161.403 175.451 156.046 172.619 155.817 172.466L155.357 173.308C155.434 173.384 160.868 176.216 162.398 177.44Z" fill="#3F51AA"/>
<path d="M165.23 180.272L165.612 179.43C164.77 179.047 161.633 178.205 161.48 178.129L161.25 179.047C162.321 179.353 164.617 180.042 165.23 180.272Z" fill="#3F51AA"/>
<path d="M184.554 143.436C184.826 140.915 184.16 138.775 183.068 138.658C181.975 138.54 180.869 140.488 180.597 143.01C180.325 145.531 180.991 147.67 182.083 147.788C183.176 147.906 184.282 145.957 184.554 143.436Z" fill="#3F51AA"/>
<path d="M180.95 158.993C181.714 158.203 180.881 156.158 179.088 154.424C177.296 152.69 175.224 151.925 174.459 152.715C173.695 153.504 174.529 155.55 176.321 157.284C178.114 159.018 180.186 159.783 180.95 158.993Z" fill="#3F51AA"/>
<path d="M179.601 151.135C180.342 150.506 179.788 148.638 178.365 146.963C176.942 145.288 175.187 144.441 174.447 145.071C173.706 145.7 174.259 147.568 175.682 149.243C177.106 150.918 178.86 151.765 179.601 151.135Z" fill="#3F51AA"/>
<path d="M187.43 150.683C188.603 149.186 189.014 147.549 188.349 147.028C187.683 146.507 186.193 147.298 185.02 148.795C183.848 150.293 183.436 151.929 184.102 152.451C184.768 152.972 186.258 152.181 187.43 150.683Z" fill="#3F51AA"/>
<path d="M184.745 168.179L185.587 167.796C180.842 157.694 182.908 144.76 182.908 144.684L181.99 144.531C181.99 144.607 179.847 157.771 184.745 168.179Z" fill="#3F51AA"/>
<path d="M181.913 158.078L182.832 158.001C182.679 154.71 185.051 151.267 185.051 151.19L184.286 150.654C184.286 150.884 181.76 154.481 181.913 158.078Z" fill="#3F51AA"/>
<path d="M181.837 157.465L182.679 157.159C182.143 155.246 179.311 149.889 179.235 149.659L178.393 150.118C178.47 150.195 181.301 155.629 181.837 157.465Z" fill="#3F51AA"/>
<path d="M182.526 161.445L183.291 160.986C182.832 160.221 180.766 157.695 180.613 157.542L179.924 158.154C180.689 159.073 182.143 160.909 182.526 161.445Z" fill="#3F51AA"/>
<path d="M192.704 177.822C192.704 177.822 187.347 160.526 191.174 152.338C194.388 145.373 197.526 141.776 197.526 141.776C197.526 141.776 206.25 150.807 205.485 157.848C204.72 164.889 200.357 176.598 200.357 176.598L192.704 177.822Z" fill="#3F51A9"/>
<path d="M203.418 179.965C203.418 179.965 202.577 160.067 195.612 154.251C188.495 148.281 185.97 147.975 185.97 147.975C185.97 147.975 184.898 160.985 188.112 167.261C191.327 173.536 195.765 181.496 195.765 181.496L203.418 179.965Z" fill="#333B72"/>
<path d="M204.03 185.628C204.03 185.628 192.704 174.531 184.209 171.394C175.714 168.256 171.658 167.72 171.658 167.72C171.658 167.72 173.342 180.654 177.857 186.088C182.372 191.521 188.418 198.332 188.418 198.332L204.03 185.628Z" fill="#333B72"/>
<path d="M217.041 207.67C215.51 211.573 201.811 212.797 201.811 212.797L195.459 208.818L191.097 206.062L162.015 187.848H162.092H162.168C162.475 187.848 163.163 187.772 164.158 187.695C166.454 187.465 170.434 187.006 175.485 185.782H175.561C182.602 184.098 191.786 181.113 201.199 175.756C206.633 172.619 212.219 168.715 217.577 163.818C217.959 163.511 218.265 163.129 218.648 162.823C218.801 162.67 219.031 162.44 219.26 162.21C220.485 160.986 221.709 159.761 222.934 158.46C223.546 157.772 224.158 157.159 224.77 156.394C224.77 156.394 220.408 187.083 217.27 197.338C217.117 197.721 217.041 198.103 216.964 198.486C215.51 204.532 218.342 204.532 217.041 207.67Z" fill="url(#paint13_linear)"/>
<path opacity="0.77" d="M218.648 162.746L214.668 201.93L203.112 208.741L187.959 187.619L201.275 175.68C207.092 172.389 212.984 168.18 218.648 162.746Z" fill="#BABCBE"/>
<path d="M210.612 216.7L190.408 188.001L222.857 158.537L216.658 200.476L210.612 216.7Z" fill="url(#paint14_linear)"/>
<path d="M215.816 222.44C215.587 222.211 215.357 221.904 215.204 221.675C213.214 219.302 210.995 217.236 210.995 217.236C210.918 217.083 210.842 216.853 210.689 216.7C210.459 216.394 210.23 216.165 209.924 215.935C208.393 214.787 206.174 215.17 205.179 215.476C205.026 215.093 204.949 214.787 204.949 214.787C204.949 214.787 201.429 215.093 200.204 217.389C200.051 217.695 199.975 218.001 199.898 218.384C199.898 218.537 199.822 218.767 199.898 218.996C199.898 218.996 198.827 221.828 198.138 224.813C198.061 225.119 197.985 225.501 197.908 225.808C197.449 227.874 197.219 229.787 197.602 230.935C197.908 231.777 199.362 232.313 201.199 230.246C203.112 228.18 202.117 234.073 207.245 232.16C207.857 231.93 208.01 231.165 208.24 230.323C208.852 231.318 209.541 232.16 210.383 232.16C214.515 232.313 212.296 226.649 214.898 227.721C217.5 228.792 218.572 227.644 218.418 226.726C218.189 225.731 217.117 224.047 215.816 222.44Z" fill="url(#paint15_linear)"/>
<path opacity="0.77" d="M216.658 200.475L215.587 206.674L195.459 208.817L191.097 206.062C193.087 205.909 209.617 206.444 216.658 200.475Z" fill="#BABCBE"/>
<path d="M210.842 217.389L208.087 221.981C208.087 221.981 198.903 220.756 197.602 220.527C195.689 220.527 192.322 219.073 195.995 217.542C197.449 216.93 210.842 217.389 210.842 217.389Z" fill="#FFC7D9"/>
<path d="M242.755 225.654L225.383 219.531L222.398 218.843L220.026 218.307C218.725 218.919 215.74 221.062 214.209 221.445C206.709 223.205 198.061 220.526 196.531 219.761C196.378 219.684 196.301 219.608 196.225 219.531C195.995 219.302 196.837 218.766 196.684 218.383C196.531 217.848 195.383 217.388 195.306 216.7C195.077 212.95 198.061 208.052 198.061 208.052C198.291 208.128 204.49 206.751 207.857 206.215C210.23 205.832 213.98 205.067 213.98 205.067L216.582 200.552L220.791 204.225L224.924 204.914L227.908 205.45L241.072 206.598C241.378 206.598 252.628 208.052 252.857 209.429L241.76 208.741C242.602 213.792 242.755 225.654 242.755 225.654Z" fill="#FFC7D9"/>
<path d="M208.929 212.185C208.929 212.185 196.148 211.572 192.475 210.807C190.638 210.424 187.883 209.43 187.73 208.664C187.27 206.828 189.872 206.598 191.327 206.904C196.454 207.899 209.388 205.909 209.388 205.909L208.929 212.185Z" fill="#FFC7D9"/>
<path d="M208.699 215.017C208.699 215.017 197.219 215.782 193.776 214.328C193.393 214.175 192.015 213.333 191.862 212.338C191.709 211.343 193.087 210.731 193.929 210.425C197.526 209.277 208.929 212.491 208.929 212.491L208.699 215.017Z" fill="#FFC7D9"/>
<path d="M209.235 217.695C209.235 217.695 197.832 218.46 194.235 217.235C193.852 217.082 192.551 216.47 192.475 215.628C192.398 214.939 193.546 214.251 194.388 214.251C198.138 214.174 209.311 215.092 209.311 215.092L209.235 217.695Z" fill="#FFC7D9"/>
<path d="M187.883 208.817C193.623 212.185 203.878 210.807 203.878 210.807" stroke="#D19996" stroke-width="0.75" stroke-miterlimit="10" stroke-linecap="round" stroke-linejoin="round"/>
<path d="M193.469 214.328C196.301 215.169 202.883 214.863 202.959 214.863" stroke="#D19996" stroke-width="0.75" stroke-miterlimit="10" stroke-linecap="round" stroke-linejoin="round"/>
<path d="M195.383 217.848C198.061 218.307 203.189 218.001 203.189 218.001" stroke="#D19996" stroke-width="0.75" stroke-miterlimit="10" stroke-linecap="round" stroke-linejoin="round"/>
<path opacity="0.95" d="M229.439 205.603L226.837 219.914L223.852 219.149L226.454 205.144L229.439 205.603Z" fill="#D19996"/>
<path d="M198.674 148.512C199.439 148.665 199.975 149.2 200.204 149.889C200.281 150.195 200.281 150.501 200.281 150.884C200.051 151.956 198.98 152.644 197.908 152.415C196.837 152.185 196.148 151.114 196.378 150.042V149.966C196.607 148.971 197.602 148.359 198.674 148.512Z" fill="url(#paint16_linear)"/>
<path opacity="0.5" d="M198.673 148.512C199.439 148.665 199.974 149.2 200.204 149.889C199.974 150.961 198.903 151.573 197.832 151.343C197.066 151.19 196.531 150.654 196.301 149.966C196.607 148.971 197.602 148.359 198.673 148.512Z" fill="white"/>
<path d="M161.326 181.496C162.015 180.96 162.934 180.807 163.699 181.19C164.005 181.343 164.388 181.572 164.617 181.878C165.459 182.873 165.23 184.327 164.235 185.169C163.24 186.011 161.786 185.781 160.944 184.787C160.944 184.787 160.944 184.71 160.867 184.71C160.179 183.715 160.408 182.338 161.326 181.496Z" fill="url(#paint17_linear)"/>
<path opacity="0.5" d="M161.326 181.496C162.015 180.961 162.934 180.807 163.699 181.19C164.464 182.185 164.235 183.639 163.24 184.404C162.551 184.94 161.633 185.093 160.867 184.711C160.179 183.716 160.408 182.338 161.326 181.496Z" fill="white"/>
<path d="M169.362 160.527C170.128 159.991 170.97 159.991 171.735 160.374C172.041 160.527 172.347 160.756 172.577 161.139C173.342 162.211 173.036 163.665 172.041 164.353C170.97 165.119 169.515 164.813 168.75 163.818C168.75 163.818 168.75 163.741 168.674 163.741C168.061 162.67 168.367 161.292 169.362 160.527Z" fill="url(#paint18_linear)"/>
<path opacity="0.5" d="M169.363 160.527C170.128 159.991 170.97 159.991 171.735 160.374C172.424 161.445 172.194 162.823 171.123 163.588C170.358 164.124 169.516 164.124 168.75 163.741C168.062 162.67 168.368 161.292 169.363 160.527Z" fill="white"/>
<path d="M191.633 166.725C191.25 168.944 189.566 170.551 188.036 170.245C186.429 169.939 185.51 167.873 185.97 165.654C186.429 163.434 188.036 161.827 189.566 162.133C191.097 162.439 192.015 164.506 191.633 166.725Z" fill="url(#paint19_linear)"/>
<path d="M192.321 172.16C190.102 172.619 188.036 171.701 187.73 170.093C187.424 168.563 188.954 166.879 191.174 166.42C193.393 165.961 195.459 166.879 195.765 168.486C196.148 170.093 194.541 171.701 192.321 172.16Z" fill="url(#paint20_linear)"/>
<path d="M188.418 175.067C186.888 173.383 186.505 171.164 187.73 170.092C188.878 169.021 191.097 169.48 192.628 171.087C194.158 172.771 194.541 174.99 193.316 176.062C192.245 177.21 190.026 176.75 188.418 175.067Z" fill="url(#paint21_linear)"/>
<path d="M183.903 173.383C184.439 171.164 186.199 169.71 187.73 170.169C189.26 170.551 190.102 172.694 189.49 174.837C188.878 177.056 187.194 178.511 185.663 178.051C184.133 177.669 183.367 175.526 183.903 173.383Z" fill="url(#paint22_linear)"/>
<path d="M182.985 168.562C185.128 167.873 187.27 168.562 187.806 170.092C188.265 171.623 186.888 173.383 184.745 174.072C182.602 174.761 180.459 174.072 179.923 172.541C179.388 171.011 180.765 169.251 182.985 168.562Z" fill="url(#paint23_linear)"/>
<path d="M186.505 165.194C188.265 166.649 188.801 168.868 187.73 170.092C186.658 171.317 184.439 171.087 182.755 169.633C180.995 168.179 180.459 165.96 181.531 164.735C182.525 163.587 184.745 163.74 186.505 165.194Z" fill="url(#paint24_linear)"/>
<path d="M187.577 172.696C189.056 172.696 190.255 171.496 190.255 170.017C190.255 168.538 189.056 167.338 187.577 167.338C186.097 167.338 184.898 168.538 184.898 170.017C184.898 171.496 186.097 172.696 187.577 172.696Z" fill="url(#paint25_linear)"/>
<path d="M203.495 158.844C203.189 160.451 202.041 161.599 200.893 161.369C199.745 161.139 199.056 159.685 199.362 158.078C199.668 156.471 200.816 155.323 201.964 155.553C203.112 155.782 203.801 157.16 203.495 158.844Z" fill="url(#paint26_linear)"/>
<path d="M204.031 162.746C202.424 163.052 200.893 162.44 200.74 161.292C200.51 160.144 201.658 158.996 203.265 158.69C204.873 158.384 206.403 158.996 206.556 160.144C206.709 161.215 205.638 162.44 204.031 162.746Z" fill="url(#paint27_linear)"/>
<path d="M201.199 164.888C200.051 163.664 199.821 162.057 200.663 161.291C201.505 160.526 203.112 160.832 204.26 162.057C205.408 163.281 205.638 164.888 204.796 165.654C203.878 166.419 202.347 166.036 201.199 164.888Z" fill="url(#paint28_linear)"/>
<path d="M197.908 163.588C198.291 161.981 199.592 160.91 200.663 161.216C201.811 161.522 202.347 163.053 201.964 164.66C201.582 166.267 200.281 167.338 199.209 167.032C198.061 166.726 197.449 165.195 197.908 163.588Z" fill="url(#paint29_linear)"/>
<path d="M197.22 160.144C198.75 159.608 200.357 160.144 200.663 161.292C201.046 162.363 200.051 163.664 198.444 164.2C196.913 164.736 195.306 164.2 195 163.052C194.617 161.981 195.612 160.679 197.22 160.144Z" fill="url(#paint30_linear)"/>
<path d="M199.745 157.772C200.97 158.843 201.429 160.451 200.663 161.292C199.898 162.211 198.291 162.058 197.066 160.986C195.842 159.915 195.383 158.308 196.148 157.466C196.913 156.547 198.521 156.701 199.745 157.772Z" fill="url(#paint31_linear)"/>
<path d="M200.51 163.206C201.609 163.206 202.5 162.315 202.5 161.216C202.5 160.117 201.609 159.226 200.51 159.226C199.411 159.226 198.521 160.117 198.521 161.216C198.521 162.315 199.411 163.206 200.51 163.206Z" fill="url(#paint32_linear)"/>
<path d="M183.367 156.165C183.061 157.772 181.913 158.92 180.765 158.69C179.617 158.461 178.929 157.007 179.235 155.399C179.541 153.792 180.689 152.644 181.837 152.874C182.985 153.027 183.597 154.481 183.367 156.165Z" fill="url(#paint33_linear)"/>
<path d="M183.827 160.067C182.22 160.373 180.689 159.761 180.536 158.613C180.306 157.465 181.454 156.317 183.062 156.011C184.669 155.704 186.199 156.317 186.352 157.465C186.582 158.536 185.434 159.761 183.827 160.067Z" fill="url(#paint34_linear)"/>
<path d="M181.072 162.209C179.924 160.985 179.694 159.377 180.536 158.612C181.378 157.847 182.985 158.153 184.133 159.377C185.281 160.602 185.511 162.209 184.669 162.974C183.827 163.74 182.143 163.357 181.072 162.209Z" fill="url(#paint35_linear)"/>
<path d="M177.781 160.91C178.163 159.302 179.464 158.231 180.536 158.537C181.607 158.843 182.22 160.374 181.837 161.981C181.454 163.588 180.153 164.66 179.082 164.353C177.934 164.047 177.322 162.517 177.781 160.91Z" fill="url(#paint36_linear)"/>
<path d="M177.015 157.465C178.546 156.929 180.153 157.465 180.459 158.613C180.842 159.684 179.847 160.985 178.24 161.521C176.709 162.056 175.102 161.521 174.796 160.373C174.49 159.301 175.485 158 177.015 157.465Z" fill="url(#paint37_linear)"/>
<path d="M179.618 155.093C180.842 156.165 181.301 157.772 180.536 158.614C179.771 159.532 178.163 159.379 176.939 158.308C175.715 157.236 175.255 155.629 176.021 154.787C176.709 153.869 178.393 154.022 179.618 155.093Z" fill="url(#paint38_linear)"/>
<path d="M180.383 160.525C181.482 160.525 182.373 159.635 182.373 158.536C182.373 157.437 181.482 156.546 180.383 156.546C179.284 156.546 178.393 157.437 178.393 158.536C178.393 159.635 179.284 160.525 180.383 160.525Z" fill="url(#paint39_linear)"/>
<path d="M175.944 178.052C175.638 179.659 174.49 180.807 173.342 180.578C172.194 180.348 171.505 178.894 171.811 177.287C172.117 175.68 173.265 174.532 174.413 174.761C175.561 174.991 176.25 176.445 175.944 178.052Z" fill="url(#paint40_linear)"/>
<path d="M176.48 182.031C174.873 182.338 173.342 181.725 173.189 180.577C172.959 179.429 174.107 178.281 175.714 177.975C177.322 177.669 178.852 178.281 179.005 179.429C179.235 180.501 178.087 181.649 176.48 182.031Z" fill="url(#paint41_linear)"/>
<path d="M173.648 184.097C172.5 182.873 172.27 181.266 173.112 180.5C173.954 179.735 175.561 180.041 176.709 181.266C177.857 182.49 178.087 184.097 177.245 184.862C176.403 185.628 174.796 185.322 173.648 184.097Z" fill="url(#paint42_linear)"/>
<path d="M170.357 182.873C170.74 181.266 172.041 180.195 173.112 180.501C174.26 180.807 174.796 182.338 174.413 183.945C174.03 185.552 172.729 186.623 171.658 186.317C170.51 186.011 169.974 184.481 170.357 182.873Z" fill="url(#paint43_linear)"/>
<path d="M169.668 179.43C171.199 178.894 172.806 179.43 173.112 180.578C173.495 181.649 172.5 182.95 170.893 183.486C169.362 183.945 167.755 183.486 167.449 182.338C167.143 181.19 168.138 179.889 169.668 179.43Z" fill="url(#paint44_linear)"/>
<path d="M172.27 176.981C173.495 178.052 173.954 179.659 173.189 180.501C172.423 181.42 170.816 181.267 169.592 180.195C168.367 179.124 167.908 177.517 168.673 176.675C169.362 175.756 170.969 175.909 172.27 176.981Z" fill="url(#paint45_linear)"/>
<path d="M173.036 182.49C174.135 182.49 175.025 181.599 175.025 180.501C175.025 179.402 174.135 178.511 173.036 178.511C171.937 178.511 171.046 179.402 171.046 180.501C171.046 181.599 171.937 182.49 173.036 182.49Z" fill="url(#paint46_linear)"/>
<path opacity="0.77" d="M224.77 156.317C223.546 157.694 220.867 160.526 219.26 162.133C219.031 162.363 218.801 162.592 218.648 162.745C218.265 163.052 217.959 163.434 217.577 163.74C212.219 168.638 206.709 172.541 201.199 175.679C191.709 181.113 182.602 184.097 175.561 185.705H175.485C169.745 186.929 165 187.465 162.168 187.771H162.092C162.015 187.771 162.015 187.771 162.015 187.771C161.48 187.465 161.25 186.623 161.327 185.475C164.388 185.322 181.607 183.944 200.128 173.383C205.944 170.092 211.913 165.807 217.577 160.45C219.643 158.46 221.25 156.853 223.24 154.557C223.24 154.557 223.24 154.557 223.316 154.633C223.469 154.786 223.852 155.169 224.235 155.552C224.311 155.628 224.311 155.705 224.388 155.705C224.617 156.011 224.77 156.24 224.77 156.317Z" fill="#BABCBE"/>
<path d="M294.796 149.658L277.194 151.572L276.505 151.648L274.592 151.954L273.98 152.031L271.913 152.337C271.072 153.255 268.776 154.556 267.628 155.398C262.347 159.225 256.76 160.679 255.306 160.602L254.005 161.061C253.929 161.061 253.623 159.914 253.393 159.684C253.087 159.301 254.005 158.919 253.699 158.383C252.322 155.551 251.327 151.419 251.327 151.419C251.556 151.342 255.919 148.357 258.444 146.827C260.128 145.832 259.362 141.776 259.362 141.776L260.893 140.322L264.873 139.633L267.322 141.317L272.066 140.245L274.745 139.633L287.296 135.118C287.526 134.965 287.985 135.577 288.597 136.572C290.816 140.398 294.796 149.658 294.796 149.658Z" fill="#FFC7D9"/>
<path d="M262.423 143.078C262.423 143.078 262.041 146.904 261.199 149.277" stroke="#D19996" stroke-width="0.75" stroke-miterlimit="10" stroke-linecap="round" stroke-linejoin="round"/>
<path d="M262.424 143.384C263.801 142.466 264.643 141.471 264.643 141.471" stroke="#D19996" stroke-width="0.75" stroke-miterlimit="10" stroke-linecap="round" stroke-linejoin="round"/>
<path d="M211.607 110.629C211.607 110.629 209.158 115.91 213.98 118.205C218.801 120.501 221.327 122.874 221.327 122.874C221.327 122.874 221.633 119.506 220.102 117.44C218.648 115.297 211.607 110.629 211.607 110.629Z" fill="#3F51AA"/>
<path d="M207.934 118.818C207.934 118.818 208.24 123.639 213.521 122.874C218.801 122.108 222.857 123.639 222.857 123.639C222.857 123.639 221.25 120.731 218.801 119.813C216.352 118.741 207.934 118.818 207.934 118.818Z" fill="#3F51AA"/>
<path d="M218.495 109.709C218.495 109.709 222.628 110.092 221.786 114.607C220.944 119.123 222.168 122.643 222.168 122.643C222.168 122.643 219.719 121.189 218.954 119.046C218.265 116.98 218.495 109.709 218.495 109.709Z" fill="#3F51AA"/>
<path d="M245.208 127.132C260.172 118.311 269.623 106.615 266.318 101.008C263.013 95.4009 248.203 98.0067 233.239 106.828C218.275 115.649 208.824 127.346 212.129 132.953C215.434 138.559 230.244 135.954 245.208 127.132Z" fill="#3F51AA"/>
<path d="M218.648 115.91C218.648 115.91 215.204 121.42 220.332 124.634C225.383 127.848 227.908 130.833 227.908 130.833C227.908 130.833 228.674 127.16 227.296 124.558C225.842 122.109 218.648 115.91 218.648 115.91Z" fill="#333B72"/>
<path d="M216.199 120.118C216.199 120.118 213.674 124.939 219.184 127.235C224.694 129.531 227.679 133.357 227.679 133.357C227.679 133.357 227.832 129.607 225.995 127.312C224.235 125.016 216.199 120.118 216.199 120.118Z" fill="#333B72"/>
<path d="M226.378 115.91C226.378 115.91 230.969 116.905 229.439 121.803C227.908 126.7 228.75 130.833 228.75 130.833C228.75 130.833 226.225 128.843 225.689 126.394C225.153 123.945 226.378 115.91 226.378 115.91Z" fill="#333B72"/>
<path d="M258.138 99.3013C258.138 99.3013 252.934 101.827 255.153 106.648C257.449 111.47 257.832 114.914 257.832 114.914C257.832 114.914 260.204 112.541 260.357 109.939C260.511 107.337 258.138 99.3013 258.138 99.3013Z" fill="#333B72"/>
<path d="M250.102 103.282C250.102 103.282 247.271 107.185 251.863 109.94C256.454 112.695 258.597 116.445 258.597 116.445C258.597 116.445 259.209 113.154 257.908 110.858C256.607 108.562 250.102 103.282 250.102 103.282Z" fill="#333B72"/>
<path d="M263.954 102.976C263.954 102.976 266.939 105.884 263.419 108.868C259.898 111.853 258.597 115.297 258.597 115.297C258.597 115.297 257.602 112.542 258.444 110.476C259.133 108.409 263.954 102.976 263.954 102.976Z" fill="#333B72"/>
<path d="M253.01 88.2812C253.01 88.2812 247.806 90.8068 250.025 95.6282C252.321 100.45 252.704 103.893 252.704 103.893C252.704 103.893 255.076 101.521 255.23 98.919C255.459 96.3935 253.01 88.2812 253.01 88.2812Z" fill="#3F51AA"/>
<path d="M244.974 92.2612C244.974 92.2612 242.143 96.1643 246.735 98.9194C251.326 101.674 253.469 105.424 253.469 105.424C253.469 105.424 254.082 102.134 252.781 99.8378C251.479 97.6184 244.974 92.2612 244.974 92.2612Z" fill="#3F51AA"/>
<path d="M258.826 91.9551C258.826 91.9551 261.811 94.8632 258.291 97.8479C254.77 100.833 253.469 104.277 253.469 104.277C253.469 104.277 252.474 101.521 253.316 99.4551C254.158 97.3887 258.826 91.9551 258.826 91.9551Z" fill="#3F51AA"/>
<path d="M228.444 99.7612C228.444 99.7612 223.24 102.287 225.459 107.108C227.755 111.93 228.138 115.373 228.138 115.373C228.138 115.373 230.51 113.001 230.663 110.399C230.893 107.797 228.444 99.7612 228.444 99.7612Z" fill="#3F51AA"/>
<path d="M220.408 103.741C220.408 103.741 217.577 107.644 222.168 110.399C226.76 113.154 228.903 116.904 228.903 116.904C228.903 116.904 229.515 113.614 228.214 111.318C226.913 109.098 220.408 103.741 220.408 103.741Z" fill="#3F51AA"/>
<path d="M234.26 103.435C234.26 103.435 237.245 106.343 233.725 109.328C230.204 112.313 228.903 115.756 228.903 115.756C228.903 115.756 227.908 113.001 228.75 110.935C229.515 108.869 234.26 103.435 234.26 103.435Z" fill="#3F51AA"/>
<path d="M216.275 111.394C216.275 111.394 228.291 126.241 239.541 128.154" stroke="#333B72" stroke-miterlimit="10"/>
<path d="M219.566 114.914L220.102 114.379C221.786 112.619 221.786 109.863 220.102 108.18L213.214 101.292L206.479 108.103L213.367 114.991C215.051 116.675 217.806 116.675 219.566 114.914Z" fill="url(#paint47_linear)"/>
<path d="M210.842 105.73C212.755 103.817 213.75 101.904 213.138 101.291C212.526 100.679 210.536 101.674 208.699 103.587C206.786 105.501 205.791 107.49 206.403 108.103C207.015 108.638 209.005 107.567 210.842 105.73Z" fill="url(#paint48_linear)"/>
<path d="M235.102 103.971C235.102 103.971 242.296 116.981 240 129.762" stroke="#333B72" stroke-miterlimit="10"/>
<path d="M237.628 108.868L236.786 109.251C234.26 110.399 231.276 109.328 230.128 106.802L225.383 96.7001L235.332 92.0317L240.077 102.134C241.225 104.659 240.153 107.644 237.628 108.868Z" fill="url(#paint49_linear)"/>
<path d="M231.046 95.9349C228.291 97.236 225.766 97.5421 225.383 96.7003C225 95.8584 226.837 94.0982 229.592 92.7972C232.347 91.4962 234.949 91.19 235.332 92.0319C235.714 92.8737 233.801 94.6339 231.046 95.9349Z" fill="url(#paint50_linear)"/>
<path d="M209.617 126.547C209.617 126.547 224.005 129.991 231.964 140.322" stroke="#333B72" stroke-miterlimit="10"/>
<path d="M214.975 128L214.669 128.842C213.827 131.521 210.995 132.975 208.393 132.133L197.755 128.842L201.046 118.357L211.684 121.648C214.286 122.49 215.817 125.322 214.975 128Z" fill="url(#paint51_linear)"/>
<path d="M201.046 124.174C200.128 127.082 198.75 129.148 197.832 128.842C196.913 128.536 196.837 126.01 197.755 123.102C198.674 120.194 200.128 118.051 201.046 118.357C201.888 118.663 201.888 121.265 201.046 124.174Z" fill="url(#paint52_linear)"/>
<path d="M245.969 94.8638C245.969 94.8638 246.046 109.711 254.311 119.736" stroke="#333B72" stroke-miterlimit="10"/>
<path d="M246.123 100.45L247.041 100.373C249.796 100.144 251.862 97.7713 251.709 94.9397L250.867 83.8428L239.924 84.6846L240.765 95.7815C240.995 98.5366 243.367 100.603 246.123 100.45Z" fill="url(#paint53_linear)"/>
<path d="M245.587 85.9852C248.648 85.7556 250.944 84.8373 250.867 83.9189C250.791 82.924 248.342 82.3118 245.281 82.5414C242.219 82.771 239.847 83.7658 239.923 84.6842C240 85.6026 242.525 86.2148 245.587 85.9852Z" fill="url(#paint54_linear)"/>
<path d="M262.576 98.1543C262.576 98.1543 256.837 108.103 258.444 118.129" stroke="#333B72" stroke-miterlimit="10"/>
<path d="M260.51 101.904L261.122 102.21C263.036 103.129 265.408 102.363 266.326 100.374L270.153 92.644L262.5 88.894L258.75 96.6236C257.755 98.6134 258.597 100.986 260.51 101.904Z" fill="url(#paint55_linear)"/>
<path d="M265.791 91.9543C267.934 93.0257 269.847 93.2553 270.153 92.643C270.459 91.9543 269.082 90.5767 266.939 89.5818C264.796 88.5104 262.806 88.2808 262.5 88.893C262.194 89.5818 263.648 90.9594 265.791 91.9543Z" fill="url(#paint56_linear)"/>
<path d="M240.153 108.103C240.153 108.103 246.582 109.634 245.204 115.603C243.827 121.572 244.209 125.475 244.209 125.475C244.209 125.475 240.995 123.333 240.153 120.501C239.388 117.669 240.153 108.103 240.153 108.103Z" fill="#333B72"/>
<path d="M250.026 110.551C250.026 110.551 254.158 114.225 249.72 118.357C245.281 122.567 243.827 127.235 243.827 127.235C243.827 127.235 242.373 123.715 243.214 120.883C244.133 118.051 250.026 110.551 250.026 110.551Z" fill="#333B72"/>
<path d="M234.566 113.613C234.566 113.613 231.964 117.593 236.633 120.042C241.301 122.491 243.597 126.088 243.597 126.088C243.597 126.088 244.056 122.797 242.602 120.654C241.148 118.511 234.566 113.613 234.566 113.613Z" fill="#333B72"/>
<path opacity="0.77" d="M265.715 104.583C264.873 102.44 256.301 106.114 252.016 110.399C248.954 113.461 247.653 116.445 247.271 118.665C245.051 118.665 241.684 119.66 238.317 121.649C235.255 123.41 233.419 125.476 232.347 127.313C230.204 126.547 226.684 126.471 222.857 127.313C216.965 128.537 214.133 131.598 213.061 133.588C212.449 134.736 218.648 136.573 224.541 135.348C228.444 134.507 231.658 133.052 233.266 131.445C235.561 131.445 239.235 130.603 242.449 128.767C246.735 126.241 249.643 123.104 249.949 120.961C252.169 120.272 255.23 118.665 257.679 116.216C262.041 112.007 266.021 105.501 265.715 104.583Z" fill="#BABCBE"/>
<path d="M269.005 165.118C264.566 163.97 265.944 167.643 266.02 168.103C266.326 169.633 265.025 173.46 262.576 173.307C261.275 173.23 260.051 172.312 258.827 170.858C257.372 172.235 254.617 173.383 253.622 173.23C252.398 173.077 252.781 162.363 252.934 159.302C252.934 159.148 252.934 158.995 252.934 158.919C252.857 158.842 252.857 158.689 252.781 158.613C252.781 158.536 252.704 158.383 252.704 158.307V158.23C252.474 157.388 252.321 156.47 252.168 155.705C252.015 154.71 251.939 153.715 251.709 152.873C251.709 152.796 251.709 152.796 251.709 152.72C251.633 152.643 251.48 152.337 251.25 151.955C250.408 150.654 248.878 148.281 248.801 148.052L214.592 135.271C214.592 135.271 244.362 129.225 266.786 105.5C266.786 105.5 262.194 141.47 262.347 142.694C262.576 144.608 261.199 147.439 261.275 148.97C262.5 150.96 265.791 152.949 268.24 155.169C268.622 155.552 269.082 155.934 269.464 156.317C271.913 158.689 274.056 161.138 274.515 162.975C274.898 164.199 273.52 166.266 269.005 165.118Z" fill="url(#paint57_linear)"/>
<path opacity="0.95" d="M274.822 139.71L277.194 151.496L276.505 151.649L274.592 151.955L272.143 140.323L274.822 139.71Z" fill="#D19996"/>
<path opacity="0.77" d="M261.658 153.18C261.658 153.18 261.658 153.103 261.658 153.18V153.027C261.735 152.874 261.811 152.797 261.964 152.721C262.271 152.491 262.806 152.109 262.73 151.573C262.653 151.19 262.271 150.884 261.735 150.731C261.965 150.501 262.118 150.119 261.964 149.736C261.735 148.894 260.434 148.741 259.669 148.665C259.209 148.665 258.674 148.665 258.138 148.741C258.214 148.665 258.291 148.665 258.368 148.665C258.674 148.512 259.286 148.129 259.209 147.517C259.056 146.828 258.521 146.292 257.296 146.063C255.612 145.756 252.245 145.91 249.72 146.904C248.419 147.44 249.031 147.823 249.337 147.976C250.179 148.512 249.949 149.277 250.179 150.042C250.255 150.272 250.408 150.348 250.561 150.348C250.638 150.731 250.944 151.343 251.174 151.802C251.25 151.955 251.25 152.109 251.327 152.185C251.327 152.338 251.48 152.491 251.633 152.568C251.633 152.568 251.709 152.568 251.786 152.568C252.092 152.568 252.398 152.491 252.704 152.491C252.322 152.568 252.016 152.644 251.709 152.721C251.633 152.721 251.633 152.721 251.556 152.721C251.25 152.797 251.097 153.103 251.174 153.41C251.327 153.945 251.403 154.558 251.556 155.093C251.633 155.399 251.862 155.552 252.169 155.552C252.934 155.399 253.852 155.17 254.771 155.017C253.929 155.323 253.163 155.629 252.628 155.782C252.322 155.935 252.245 156.318 252.398 156.777C252.475 157.006 252.475 157.313 252.551 157.542C253.699 157.389 254.924 156.93 255.919 156.7C257.22 156.394 258.444 156.088 259.669 155.399C259.362 155.246 259.362 154.711 259.745 154.634C260.128 154.481 260.51 154.404 260.817 154.175C260.97 154.022 261.123 153.792 261.276 153.639C261.352 153.563 261.505 153.486 261.582 153.486C261.582 153.333 261.658 153.256 261.658 153.18Z" fill="#BABCBE"/>
<path d="M256.684 146.368C254.924 146.445 251.939 146.674 249.337 147.21C249.107 147.286 248.725 147.669 248.801 147.899C249.107 148.817 249.413 149.2 249.643 149.965C249.796 150.348 250.255 150.271 250.485 150.271C253.01 149.965 256.072 149.506 257.832 148.587C258.138 148.434 258.75 148.128 258.674 147.439C258.521 146.674 257.985 146.291 256.684 146.368Z" fill="#FFC7D9"/>
<path d="M259.133 148.588C256.914 148.511 253.546 149.2 250.868 149.659C250.638 149.736 250.026 149.889 250.102 150.119C250.179 150.654 250.791 151.496 250.868 152.108C250.868 152.338 251.097 152.491 251.327 152.491C254.158 152.261 258.444 151.19 260.587 150.96C261.276 150.884 261.658 150.348 261.429 149.659C261.199 148.817 259.898 148.588 259.133 148.588Z" fill="#FFC7D9"/>
<path d="M260.51 150.578C258.521 150.884 253.929 151.955 251.021 152.644C250.714 152.72 250.561 153.027 250.638 153.333C250.791 153.868 250.868 154.481 251.021 155.016C251.097 155.323 251.403 155.552 251.633 155.476C254.694 154.863 259.362 153.792 261.123 152.72C261.429 152.567 262.194 152.108 262.118 151.419C262.118 150.884 261.199 150.501 260.51 150.578Z" fill="#FFC7D9"/>
<path d="M251.863 156.623C252.016 157.618 252.551 158.384 252.551 158.384C252.704 158.613 253.01 158.766 253.317 158.613C254.388 158.154 257.296 156.853 260.204 155.858C260.281 155.782 260.357 155.782 260.51 155.782C262.041 155.322 263.954 152.414 260.893 152.644C259.822 152.72 254.235 154.863 252.169 155.552C251.786 155.782 251.786 156.241 251.863 156.623Z" fill="#FFC7D9"/>
<path d="M250.026 149.965C250.026 149.965 257.296 149.047 258.291 147.899" stroke="#D19996" stroke-width="0.75" stroke-miterlimit="10" stroke-linecap="round" stroke-linejoin="round"/>
<path d="M251.021 152.568C251.021 152.568 260.816 151.343 261.352 150.348" stroke="#D19996" stroke-width="0.75" stroke-miterlimit="10" stroke-linecap="round" stroke-linejoin="round"/>
<path d="M251.862 155.629C251.862 155.629 259.515 153.715 261.429 152.874" stroke="#D19996" stroke-width="0.75" stroke-miterlimit="10" stroke-linecap="round" stroke-linejoin="round"/>
<path opacity="0.77" d="M262.347 142.542C260.893 143.383 259.362 144.225 258.367 144.837C257.296 145.526 256.377 145.679 255.918 145.144C255.459 144.684 255.689 143.996 255.842 143.69C257.219 141.547 259.209 140.322 260.663 139.251C261.046 138.945 262.347 138.332 262.729 138.256C262.653 139.557 262.194 141.241 262.347 142.542Z" fill="#BABCBE"/>
<path d="M261.199 139.558C259.745 140.629 257.755 141.854 256.378 143.996C256.225 144.303 255.995 144.915 256.454 145.45C256.913 145.986 257.832 145.833 258.903 145.144C260.74 143.92 264.26 142.236 265.714 140.935C266.097 140.476 263.495 137.874 261.199 139.558Z" fill="#FFC7D9"/>
<path d="M258.827 116.981C256.607 119.2 253.852 120.731 251.709 121.496C251.48 121.573 251.25 121.649 251.097 121.726C251.021 122.491 250.561 123.409 249.796 124.404C248.495 126.088 246.276 128.001 243.597 129.532C241.684 130.68 239.618 131.369 237.781 131.751C236.862 131.981 235.944 132.134 235.179 132.134C234.949 132.134 234.643 132.134 234.414 132.21C232.806 133.818 229.592 135.272 225.689 136.114C219.796 137.338 213.597 135.425 214.209 134.353C215.281 132.364 218.113 129.302 224.005 128.078C226.454 127.542 228.75 127.389 230.664 127.542C231.735 127.619 232.73 127.772 233.495 128.078C233.954 127.236 234.567 126.471 235.408 125.629C236.48 124.557 237.781 123.486 239.465 122.491C241.914 121.037 244.286 120.119 246.276 119.736C247.041 119.583 247.806 119.506 248.419 119.506C248.648 118.205 249.107 116.751 250.026 115.221C250.791 113.92 251.786 112.619 253.164 111.241C257.449 107.032 266.021 103.358 266.863 105.425C267.092 106.19 263.113 112.772 258.827 116.981Z" fill="url(#paint58_linear)"/>
<path opacity="0.77" d="M254.082 129.991L249.796 124.328L246.275 119.659C247.041 119.506 247.806 119.43 248.418 119.43C248.648 118.129 249.107 116.675 250.025 115.144L251.786 121.496L254.082 129.991Z" fill="#BABCBE"/>
<path opacity="0.77" d="M240.689 137.796L235.179 132.133L230.664 127.541C231.735 127.618 232.73 127.771 233.495 128.077C233.954 127.235 234.567 126.47 235.408 125.628L237.857 131.827L240.689 137.796Z" fill="#BABCBE"/>
<path d="M49.5154 187.848C48.0614 190.221 42.3216 201.012 36.4287 212.262C42.245 216.93 48.7501 221.063 55.791 224.583C75.3828 234.302 99.3369 239.659 126.352 241.649C126.582 241.649 126.735 241.649 126.964 241.726L103.01 183.333C103.01 183.18 56.5563 176.369 49.5154 187.848Z" fill="url(#paint59_linear)"/>
<path d="M179.465 45.8071C179.465 45.8071 182.908 18.7918 177.704 11.751C172.5 4.71017 172.194 31.2663 172.883 38.0775C173.572 44.8887 176.48 47.5673 176.48 47.5673L179.465 45.8071Z" fill="#3F51AA"/>
<path d="M171.276 55.4503C162.551 68.4605 151.99 77.4145 144.873 78.639C144.107 78.7921 143.342 78.7921 142.653 78.7921C142.27 78.7921 141.964 78.7156 141.658 78.639C141.046 78.486 140.51 78.2564 139.975 77.8737C133.776 73.7411 132.245 57.2105 143.342 40.6798C154.439 24.1492 174.031 13.8176 180.23 18.0268C180.995 18.5625 181.607 19.3278 182.066 20.2462C182.679 21.3941 182.985 22.9247 183.061 24.685C183.444 31.9554 179.158 43.7411 171.276 55.4503Z" fill="#3F51AA"/>
<path d="M175.102 29.9653C175.102 29.9653 178.24 44.3531 181.837 52.4653" stroke="#333B72" stroke-miterlimit="10"/>
<path d="M168.521 16.1899C168.521 16.1899 178.469 45.6542 181.684 46.1899" stroke="#3F51AA" stroke-miterlimit="10"/>
<path d="M171.199 12.4402C171.735 14.9657 170.74 17.3382 168.98 17.7208C167.219 18.1035 165.306 16.3433 164.771 13.8177C164.235 11.2922 165.23 8.91979 166.99 8.53714C168.75 8.15448 170.663 9.91469 171.199 12.4402Z" fill="url(#paint60_linear)"/>
<path d="M173.801 43.5116C173.801 43.5116 166.99 17.1086 159.567 12.5167C152.143 7.92488 161.709 32.7208 164.847 38.7667C167.985 44.8126 171.658 46.1902 171.658 46.1902L173.801 43.5116Z" fill="#3F51AA"/>
<path d="M180.459 28.276C181.235 24.2499 178.599 20.3577 174.573 19.5824C170.547 18.8071 166.655 21.4424 165.88 25.4685C165.104 29.4945 167.74 33.3868 171.766 34.1621C175.792 34.9374 179.684 32.3021 180.459 28.276Z" fill="#DDB1FF"/>
<path opacity="0.24" d="M171.604 26.6043C171.949 24.8628 171.253 23.2581 170.051 23.0201C168.849 22.782 167.594 24.0008 167.249 25.7423C166.905 27.4838 167.6 29.0885 168.802 29.3265C170.005 29.5645 171.259 28.3457 171.604 26.6043Z" fill="white"/>
<path d="M159.72 73.0522C159.72 76.8022 154.286 81.1645 152.22 81.1645C150.153 81.1645 150.842 76.5727 152.22 73.0522C153.903 68.7665 159.567 65.5522 161.633 65.5522C163.699 65.5522 159.72 69.3022 159.72 73.0522Z" fill="url(#paint61_linear)"/>
<path d="M180.689 40.8329C180.459 37.0829 186.811 30.9604 188.495 32.1084C188.648 32.1849 189.337 36.8533 188.112 40.3737C186.658 44.7359 181.225 48.2563 179.158 48.4094C177.168 48.5625 180.918 44.5829 180.689 40.8329Z" fill="url(#paint62_linear)"/>
<path d="M152.985 21.7002C152.985 21.7002 171.429 46.7257 174.643 46.2665" stroke="#3F51AA" stroke-miterlimit="10"/>
<path d="M154.362 17.2618C155.663 19.4812 155.434 22.0833 153.903 23.0016C152.296 23.92 150 22.8486 148.699 20.5526C147.398 18.2567 147.628 15.7312 149.158 14.8129C150.765 13.8945 153.061 14.9659 154.362 17.2618Z" fill="url(#paint63_linear)"/>
<path d="M162.934 51.3176C162.934 51.3176 150.383 27.134 142.041 24.3023C133.776 21.4707 148.699 43.5115 153.138 48.7156C157.577 53.9197 161.48 54.4554 161.48 54.4554L162.934 51.3176Z" fill="#3F51AA"/>
<path d="M158.266 57.5928C158.266 57.5928 136.531 42.5163 127.271 43.1285C118.546 43.7408 142.73 60.1183 149.005 62.8734C155.281 65.552 158.342 60.9601 158.342 60.9601L158.266 57.5928Z" fill="#3F51AA"/>
<path d="M161.097 43.8179C161.097 43.8179 172.883 59.124 181.684 58.3587" stroke="#333B72" stroke-miterlimit="10"/>
<path d="M164.388 42.7462C166.225 44.583 166.76 47.0319 165.459 48.333C164.158 49.634 161.633 49.2513 159.796 47.4146C157.959 45.6544 157.424 43.1289 158.725 41.8279C159.949 40.5268 162.475 40.9095 164.388 42.7462Z" fill="url(#paint64_linear)"/>
<path d="M136.914 34.5571C136.914 34.5571 161.48 53.6133 164.465 52.3122" stroke="#3F51AA" stroke-miterlimit="10"/>
<path d="M137.066 29.9654C138.903 31.8022 139.439 34.3277 138.138 35.6287C136.837 36.9297 134.311 36.5471 132.474 34.7103C130.638 32.8736 130.102 30.3481 131.403 29.0471C132.704 27.6695 135.23 28.1287 137.066 29.9654Z" fill="url(#paint65_linear)"/>
<path d="M158.725 61.5726C158.725 61.5726 131.786 57.4399 124.592 62.491C117.398 67.542 144.031 68.4604 150.842 67.9246C157.653 67.3889 160.408 64.5573 160.408 64.5573L158.725 61.5726Z" fill="#3F51AA"/>
<path d="M145.562 67.1591C145.562 67.1591 161.403 66.7765 169.745 63.9448" stroke="#333B72" stroke-miterlimit="10"/>
<path d="M158.036 35.1699C158.036 35.1699 169.821 50.476 178.622 49.7107" stroke="#333B72" stroke-miterlimit="10"/>
<path d="M146.25 51.0879C146.25 51.0879 161.403 63.1032 169.745 60.2716" stroke="#333B72" stroke-miterlimit="10"/>
<path d="M182.296 63.0269C182.296 63.0269 175.485 36.6238 168.061 32.032C160.638 27.3636 170.204 52.2361 173.342 58.282C176.48 64.3279 180.153 65.7055 180.153 65.7055L182.296 63.0269Z" fill="#333B72"/>
<path d="M184.363 64.0982C184.363 64.0982 163.01 47.1084 154.286 47.9502C145.562 48.7155 165.842 65.0931 172.041 68.0012C178.24 70.9094 184.363 67.542 184.363 67.542V64.0982Z" fill="#333B72"/>
<path d="M180.613 73.6646C180.613 73.6646 159.26 56.6748 150.536 57.5166C141.812 58.2819 162.092 74.6595 168.291 77.5676C174.49 80.4758 180.613 77.1084 180.613 77.1084V73.6646Z" fill="#333B72"/>
<path d="M161.633 67.3125C161.633 67.3125 134.388 68.1543 128.265 74.3533C122.066 80.5523 148.469 76.7258 155.051 74.9656C161.633 73.2054 163.852 69.9145 163.852 69.9145L161.633 67.3125Z" fill="#333B72"/>
<path d="M219.26 77.7968C220.332 79.0978 219.873 81.9294 214.669 82.9243C209.465 83.9958 212.832 86.9805 213.061 87.4396C213.291 87.8988 214.745 93.4856 212.067 94.557C208.699 95.858 203.342 92.1845 198.368 87.6692C197.908 87.2866 197.449 86.8274 197.067 86.4447C196.99 86.3682 196.913 86.3682 196.913 86.2917C196.225 85.6029 195.459 84.9141 194.771 84.1488C192.934 82.3121 191.327 80.4754 189.949 78.9447C189.49 78.4856 189.107 78.0264 188.801 77.5672C187.194 75.6539 186.199 74.3529 186.199 74.3529C186.199 74.3529 190.102 68.9192 194.924 69.2254C195.536 69.3019 196.225 69.4549 196.837 69.6845C197.143 69.8376 197.526 69.9907 197.832 70.1437C197.832 70.1437 203.419 71.1386 209.005 72.8223C209.618 72.9754 210.23 73.2049 210.842 73.358C214.439 74.659 217.883 76.1896 219.26 77.7968Z" fill="url(#paint66_linear)"/>
<path d="M142.041 55.6034C147.24 55.6034 151.454 51.3889 151.454 46.1901C151.454 40.9913 147.24 36.7769 142.041 36.7769C136.842 36.7769 132.627 40.9913 132.627 46.1901C132.627 51.3889 136.842 55.6034 142.041 55.6034Z" fill="#DDB1FF"/>
<path opacity="0.77" d="M183.138 24.6083C171.888 51.6236 154.286 73.1287 148.929 78.1798C148.163 78.3328 143.342 78.792 142.653 78.792C142.27 78.792 141.964 78.7155 141.658 78.6389C144.413 76.4196 171.276 53.9196 182.143 20.2461C182.755 21.3941 183.061 22.8481 183.138 24.6083Z" fill="#BABCBE"/>
<path opacity="0.24" d="M141.022 46.858C141.555 44.1628 140.441 41.6719 138.534 41.2943C136.627 40.9167 134.648 42.7955 134.114 45.4906C133.581 48.1858 134.695 50.6767 136.602 51.0543C138.509 51.4319 140.488 49.5531 141.022 46.858Z" fill="white"/>
<path d="M143.036 73.8178C146.629 73.8178 149.541 70.9054 149.541 67.3127C149.541 63.7201 146.629 60.8076 143.036 60.8076C139.443 60.8076 136.531 63.7201 136.531 67.3127C136.531 70.9054 139.443 73.8178 143.036 73.8178Z" fill="#DDB1FF"/>
<path opacity="0.24" d="M139.592 69.9916C140.818 69.9916 141.811 68.5525 141.811 66.7773C141.811 65.0021 140.818 63.563 139.592 63.563C138.366 63.563 137.373 65.0021 137.373 66.7773C137.373 68.5525 138.366 69.9916 139.592 69.9916Z" fill="white"/>
<path d="M154.974 39.6087C159.074 39.6087 162.398 36.2851 162.398 32.1852C162.398 28.0853 159.074 24.7617 154.974 24.7617C150.875 24.7617 147.551 28.0853 147.551 32.1852C147.551 36.2851 150.875 39.6087 154.974 39.6087Z" fill="#DDB1FF"/>
<path opacity="0.24" d="M153.469 31.8098C153.814 30.0684 153.119 28.4637 151.916 28.2256C150.714 27.9876 149.459 29.2064 149.115 30.9479C148.77 32.6893 149.465 34.294 150.668 34.5321C151.87 34.7701 153.124 33.5513 153.469 31.8098Z" fill="white"/>
<path d="M130.332 55.6797L138.291 58.2817" stroke="#3F51AA" stroke-miterlimit="10"/>
<path d="M129.873 52.4652C132.398 53.0009 134.235 54.8376 133.852 56.5978C133.47 58.358 131.174 59.4295 128.572 58.8937C126.046 58.358 124.209 56.5213 124.592 54.7611C124.975 53.0009 127.347 51.9295 129.873 52.4652Z" fill="url(#paint67_linear)"/>
<path d="M189.107 77.9501L170.051 78.2562L152.985 78.5624L143.572 78.7154C143.572 78.7154 143.572 78.7154 143.648 78.7154C144.873 77.7971 169.745 58.4348 181.531 25.9858C181.99 24.7614 182.449 23.4603 182.832 22.2358C182.832 22.2358 184.133 27.9756 185.816 34.7103C187.5 41.3685 189.566 49.1746 191.174 53.5369C192.015 55.6797 193.623 57.8991 195.23 59.8889C196.837 62.0318 198.444 64.0216 198.75 65.7818C199.515 69.7613 189.107 77.9501 189.107 77.9501Z" fill="url(#paint68_linear)"/>
<path opacity="0.5" d="M196.607 64.634L194.082 70.7565L173.112 54.9147L185.816 34.7871C187.5 41.4453 189.566 49.2514 191.174 53.6136C192.015 55.7565 193.623 57.9759 195.23 59.9657L196.607 64.634Z" fill="#BABCBE"/>
<path opacity="0.5" d="M191.556 74.1237L188.495 77.0318L170.051 78.3329L152.985 78.639L168.291 60.6543L191.556 74.1237Z" fill="#BABCBE"/>
<path d="M152.219 81.1649L168.521 61.7261L190.485 74.6597L187.271 78.0271L152.219 81.1649Z" fill="url(#paint69_linear)"/>
<path d="M188.495 32.1846L174.49 54.3784L195.459 70.2968L197.908 64.0978L188.495 32.1846Z" fill="url(#paint70_linear)"/>
<path opacity="0.77" d="M185.663 78.1798C185.663 78.1798 194.158 69.838 197.219 61.6492C197.602 60.5778 199.362 65.7053 199.362 65.7053L188.801 78.0267L185.663 78.1798Z" fill="#BABCBE"/>
<path d="M257.525 36.8533L215.816 65.3227L213.367 67.0063L211.454 68.3074C211.071 69.6084 210.689 73.2053 209.923 74.5829C206.327 81.1645 198.827 85.6033 197.296 86.2155C197.143 86.2921 197.066 86.2921 196.913 86.2921C196.607 86.2921 196.224 86.2155 195.842 86.0625C195.306 85.8329 194.77 85.5267 194.235 85.0676C191.327 82.7716 189.796 77.491 189.796 77.491C190.025 77.338 193.01 72.0574 194.847 69.2257C196.071 67.3125 197.985 64.0982 197.985 64.0982L196.607 59.5063L201.811 58.588L205.025 56.0625L207.321 54.2257L242.755 25.6033C242.908 25.3737 243.673 25.7563 244.821 26.5216" fill="#FFC7D9"/>
<path d="M199.209 71.4449C199.209 71.4449 191.48 79.7102 188.189 81.1643C187.806 81.3174 186.964 81.547 186.429 81.0113C185.893 80.399 185.51 79.5572 186.505 78.4858C188.648 76.0368 196.913 68.9194 196.913 68.9194L199.209 71.4449Z" fill="#FFC7D9"/>
<path d="M201.735 74.4299C201.735 74.4299 194.235 82.6186 190.944 84.0727C190.561 84.2258 189.719 84.6084 189.107 84.1493C188.265 83.537 188.495 82.8482 188.878 82.0064C190.408 78.7156 200.051 72.5166 200.051 72.5166L201.735 74.4299Z" fill="#FFC7D9"/>
<path d="M204.031 75.7309C204.031 75.7309 197.219 84.4554 194.005 86.2156C193.699 86.3687 192.781 86.9044 192.168 86.4452C191.633 86.0625 191.097 84.9911 192.092 83.7666C194.311 80.935 202.194 73.9707 202.194 73.9707L204.031 75.7309Z" fill="#FFC7D9"/>
<path d="M204.031 75.2715L205.561 80.1694C205.561 80.1694 201.582 83.6133 198.444 86.9041C198.367 86.9807 198.291 87.0572 198.214 87.1337C196.99 88.5113 193.24 89.6592 194.541 86.0623C195 84.6082 204.031 75.2715 204.031 75.2715Z" fill="#FFC7D9"/>
<path d="M187.271 81.0878C191.097 80.6286 195.459 74.6592 195.459 74.6592" stroke="#D19996" stroke-width="0.75" stroke-miterlimit="10" stroke-linecap="round" stroke-linejoin="round"/>
<path d="M189.949 84.2251C192.321 83.7659 198.214 77.5669 198.291 77.5669" stroke="#D19996" stroke-width="0.75" stroke-miterlimit="10" stroke-linecap="round" stroke-linejoin="round"/>
<path d="M192.934 86.4451C195.383 85.6798 200.281 80.2461 200.281 80.2461" stroke="#D19996" stroke-width="0.75" stroke-miterlimit="10" stroke-linecap="round" stroke-linejoin="round"/>
<path opacity="0.95" d="M208.393 53.4604L216.964 64.5574L214.515 66.2411L206.097 55.2972L208.393 53.4604Z" fill="#D19996"/>
<path d="M98.648 120.96C115.026 108.256 102.857 93.1799 108.061 82.9248C114.413 70.2207 98.3419 59.1237 100.714 23.3839C99.1072 1.26659 83.7246 16.4197 83.7246 16.4197L86.7093 50.8584L75.3827 53.6901L77.4491 85.6033L73.4695 92.4911C73.393 92.5676 82.347 133.588 98.648 120.96Z" fill="url(#paint71_linear)"/>
<path d="M123.597 152.338C123.597 152.797 123.597 153.18 123.597 153.639C123.597 153.792 123.597 153.945 123.597 154.098C123.367 161.598 122.373 168.027 119.464 166.114C118.699 165.578 117.934 165.042 117.168 164.353C116.939 164.2 116.786 163.971 116.556 163.818C96.2756 145.374 101.48 92.7207 101.48 92.7207C101.48 92.7207 108.367 95.7819 109.822 97.6952C115.714 105.654 123.214 135.348 123.214 135.348C123.214 135.348 123.75 144.073 123.597 152.338Z" fill="url(#paint72_linear)"/>
<path d="M139.209 149.507C139.133 150.348 139.133 151.343 139.056 152.338C139.056 153.027 138.98 153.792 138.98 154.481C138.903 156.471 138.673 158.614 138.061 160.603C138.061 160.68 138.061 160.68 137.985 160.757C137.832 161.292 137.602 161.828 137.372 162.364C137.143 162.823 136.913 163.282 136.684 163.665C136.225 164.43 135.689 165.119 135 165.731C134.847 165.808 134.77 165.961 134.694 166.037C133.852 166.802 132.934 167.491 131.939 168.103C126.505 171.853 120.306 173.001 118.393 167.109C118.087 166.19 117.857 164.736 117.551 162.899C117.551 162.823 117.551 162.746 117.551 162.746C117.551 162.746 117.551 162.67 117.551 162.593C117.475 162.287 117.474 161.904 117.398 161.598C117.398 161.522 117.398 161.445 117.398 161.369C115.561 147.746 114.107 118.435 114.107 118.435L111.352 91.3433L120.077 86.4453C120.077 86.4453 131.556 123.257 136.454 140.859C136.454 140.935 136.531 141.088 136.531 141.165C136.531 141.165 136.684 141.547 136.837 142.083C137.679 144.149 139.286 148.741 139.209 149.507Z" fill="#FFC7D9"/>
<path d="M94.592 70.3734C94.592 70.3734 97.8063 76.5724 99.2604 79.9397L101.097 80.6285L103.317 75.654L99.4135 70.8326L97.1941 62.4907L94.592 70.3734Z" fill="#FFC7D9"/>
<path d="M107.066 60.8072L99.796 57.0571L99.0307 56.6745L98.4185 56.3684L99.796 51.0112L100.561 52.0061L101.097 52.7714L107.066 60.8072Z" fill="#FFC7D9"/>
<path d="M94.6685 69.5321C94.6685 69.5321 93.6736 72.2872 95.2807 72.5168C96.046 72.6698 97.7297 69.6851 98.8011 68.5372C99.1073 68.1545 99.643 66.3178 99.643 66.3178L103.699 70.7566L106.837 68.1545C106.837 68.1545 102.704 62.7208 101.327 62.9504C99.9491 63.18 97.5766 63.7923 97.5766 63.7923C97.5766 63.7923 95.2807 67.6188 94.6685 69.5321Z" fill="#FFC7D9"/>
<path d="M120.153 86.5219C120.153 86.5219 112.883 68.5372 112.271 65.5525C112.118 64.7872 110.817 62.9504 110.051 62.4912L99.3369 55.2974L97.7298 57.2872L95.8931 63.4861L97.2706 64.328L101.174 63.3331L103.776 65.1698C103.776 65.1698 102.551 69.0729 102.322 70.4504C102.016 72.3637 99.1073 75.8076 99.1073 75.8076C99.1073 75.8076 98.4951 78.027 99.1839 80.0168C99.8727 82.0831 105.153 84.9912 106.148 86.2923C107.143 87.5933 109.975 90.3484 111.429 91.4198C112.806 92.4147 120.153 86.5219 120.153 86.5219Z" fill="#FFC7D9"/>
<path d="M104.464 76.8788C104.464 77.1084 104.311 77.338 104.158 77.338H104.082C103.929 77.338 103.699 77.1849 103.699 77.0319C103.699 76.9553 103.087 72.8227 102.322 69.7614C102.168 69.1492 100.791 67.8482 99.796 66.9298C98.648 69.0727 96.3521 73.1288 94.8215 72.6696C94.5919 72.5931 94.4389 72.44 94.2858 72.2104C93.8266 71.3686 94.4389 69.6084 95.3572 67.1594C95.5868 66.6237 95.7399 66.1645 95.8929 65.7819C95.8929 65.7053 97.5766 60.8839 98.9542 56.6747C99.5664 54.838 100.102 53.1543 100.408 52.0063L101.02 52.7717C100.714 53.9196 100.179 55.4502 99.6429 57.0574C98.3419 61.1135 96.7348 65.7053 96.5817 66.0114C96.4286 66.3941 96.2756 66.9298 96.046 67.4655C95.5103 68.9196 94.5919 71.2921 94.898 71.9043C95.5103 72.1339 97.5001 69.3788 99.1838 66.1645C99.2603 66.088 99.3368 66.0114 99.4899 65.9349C99.6429 65.9349 99.7195 65.9349 99.796 66.0114C100.102 66.241 102.704 68.3839 103.01 69.6084C103.852 72.5931 104.464 76.8788 104.464 76.8788Z" fill="#D19996"/>
<path d="M67.8827 39.378L43.4694 27.8984C43.4694 27.8984 45.4592 57.8219 29.6174 65.2454C26.0969 66.4699 23.1888 67.5413 21.5816 73.4342C20.4337 77.7199 21.4286 81.0107 23.4949 83.6893C18.0612 87.6688 12.8572 94.0974 10.4847 104.353C5.89287 123.715 21.5816 141.24 28.5459 141.24C31.8367 141.24 36.199 132.669 39.949 122.72L69.3367 104.123L71.7092 61.4188L67.8827 39.378Z" fill="url(#paint73_linear)"/>
<path d="M42.7806 154.098L51.1989 183.18L48.5969 194.736L101.633 181.266C101.633 181.266 112.5 152.874 111.429 127.771C110.969 116.598 101.403 92.7205 101.403 92.7205L86.7091 87.6694L55.102 89.9654L35.204 98.7664C32.7551 99.9909 31.8367 103.741 32.3724 106.419L42.7806 154.098Z" fill="url(#paint74_linear)"/>
<path d="M90.9184 56.9809C90.9184 56.9809 88.1632 62.0319 87.6275 65.5523C87.3979 67.0064 85.7143 90.5013 85.102 93.6391C85.102 93.6391 83.801 98.0013 72.7806 98.0013C67.0408 98.0013 54.7959 89.4299 54.7959 89.4299C54.7959 89.4299 62.7551 85.9095 62.7551 70.3738C62.7551 62.185 62.0663 57.287 57.0918 47.7972C57.0918 47.7972 67.7296 46.9554 75.3826 50.1697L75.4592 50.2462C78.2143 51.3942 80.8163 52.6187 82.8826 53.9197C86.0204 55.6799 90.9184 56.9809 90.9184 56.9809Z" fill="#FFC7D9"/>
<path d="M62.7551 71.368C65.4336 73.4344 68.3418 75.118 71.3265 76.8017C75.9183 79.4038 80.8163 81.0109 85.9438 81.8527C86.0204 81.8527 86.1734 81.8527 86.25 81.9293C86.8622 74.5823 87.4745 66.3936 87.6275 65.5517C88.1632 62.0313 90.9183 56.9803 90.9183 56.9803C90.9183 56.9803 86.0204 55.7558 82.8826 53.8425C80.8163 52.618 78.2142 51.317 75.4591 50.1691L75.3826 50.0925C67.7296 46.8782 57.0918 47.7201 57.0918 47.7201C62.0663 57.2864 62.7551 71.0619 62.7551 71.368Z" fill="#D19996"/>
<path d="M99.49 32.1845C96.6583 47.261 81.1992 58.2049 66.1226 55.3733C51.0461 52.5416 41.0971 38.0773 43.9288 23.0008C46.7604 8.0008 61.2247 -1.94818 76.3012 0.883456C91.3777 3.71509 102.322 17.1079 99.49 32.1845Z" fill="url(#paint75_linear)"/>
<path d="M100.714 33.18C100.408 35.2463 99.5664 36.7769 99.643 40.68C99.643 42.134 100.561 44.0473 100.791 45.8075C101.021 47.6443 101.097 49.481 100.714 51.1647C100.561 51.7004 100.255 52.7718 99.796 54.1494C98.3419 58.6647 95.7399 66.1647 95.7399 66.1647C95.7399 66.1647 93.9032 71.4453 92.3726 72.2106C87.7042 74.7361 79.1328 72.0575 73.9287 69.532C67.6532 66.4708 61.5307 61.9555 57.1685 51.7769C53.8011 44.0473 53.5715 39.3024 53.9542 30.4249C54.7195 14.2004 70.3317 5.39936 77.6022 5.70548C88.9287 6.24119 101.633 13.0524 101.48 27.8228C101.48 28.9708 101.25 29.9657 101.097 30.731C101.097 30.8841 101.021 31.0371 101.021 31.1902V31.2667C100.944 31.4963 100.944 31.8024 100.867 32.032C100.867 32.1851 100.791 32.3381 100.791 32.4147C100.791 32.7208 100.791 32.9504 100.714 33.18Z" fill="#FFC7D9"/>
<path d="M83.495 32.4143C78.3674 30.4245 72.1684 30.9602 67.5766 34.098C67.347 34.2511 67.5001 34.7102 67.8062 34.6337C69.1837 34.1745 70.0256 33.2562 71.5562 32.95C73.4695 32.5674 75.3827 32.6439 77.296 32.8735C78.9797 33.1031 81.8113 34.1745 83.495 33.4857C84.0307 33.2562 84.0307 32.5674 83.495 32.4143Z" fill="#231F20"/>
<path d="M101.021 31.2665V31.343C100.944 31.5726 100.944 31.8788 100.867 32.1083C100.867 32.2614 100.791 32.4145 100.791 32.491C99.8726 32.491 98.9542 32.5675 98.0358 32.6441C96.2756 32.8737 93.5205 33.9451 91.8368 33.2563C91.3011 33.0267 91.3011 32.3379 91.8368 32.1083C94.8215 31.1135 97.9593 30.7308 101.021 31.2665Z" fill="#231F20"/>
<path opacity="0.41" d="M74.4763 56.4671C76.5818 54.6371 76.603 51.2139 74.5235 48.8211C72.444 46.4284 69.0513 45.9722 66.9458 47.8022C64.8402 49.6322 64.8191 53.0554 66.8985 55.4482C68.978 57.8409 72.3707 58.2971 74.4763 56.4671Z" fill="#FF777A"/>
<path opacity="0.41" d="M100.791 51.2404C100.638 51.7762 100.332 52.8476 99.8724 54.2251L99.7958 54.1486C97.7295 51.7762 97.7295 48.3323 99.7958 46.4955C100.102 46.1894 100.408 46.0364 100.791 45.8833C101.097 47.72 101.25 49.5568 100.791 51.2404Z" fill="#FF777A"/>
<path d="M81.3522 39.3777C79.5154 40.3726 77.4491 40.9848 75.3063 40.6787C74.3879 40.6022 71.9389 40.2195 70.944 38.9185C70.791 38.7654 70.944 38.5358 71.0971 38.6124C71.9389 38.7654 74.694 39.0716 75.6124 39.0716C77.6022 39.1481 79.2093 39.2246 81.1991 38.9185C81.4287 38.9185 81.5052 39.2246 81.3522 39.3777Z" fill="#231F20"/>
<path d="M79.0645 42.2625C79.3519 41.0709 78.9519 39.9524 78.1713 39.7642C77.3906 39.5759 76.5248 40.3893 76.2375 41.5808C75.9502 42.7723 76.3501 43.8909 77.1308 44.0791C77.9115 44.2674 78.7772 43.454 79.0645 42.2625Z" fill="#231F20"/>
<path d="M93.75 48.2563C93.75 48.1797 93.75 48.1797 93.75 48.2563C92.9847 46.1899 91.5306 44.1236 90.9184 41.9042C90.2296 39.5318 90.5357 37.0063 90.4592 34.5573C90.4592 34.0981 89.6939 34.0981 89.6939 34.5573C89.5408 37.7716 89.6174 41.8277 90.8419 45.195C91.301 46.4961 91.6072 47.1083 92.0664 47.9501C92.2194 48.2563 92.1429 48.6389 91.8368 48.792C90.9184 49.3277 89.6939 49.8634 89.3878 50.7052C89.3113 50.9348 89.4643 51.241 89.6174 51.3175C90.9949 52.0828 92.5255 50.2461 93.5204 49.4807C93.9796 49.0981 93.9796 48.5624 93.75 48.2563Z" fill="#D19996"/>
<path d="M92.5256 39.0726C94.3623 39.9144 96.3521 40.2971 98.4184 39.8379C99.2603 39.6848 101.556 39.1491 102.398 37.8481C102.475 37.6951 102.398 37.542 102.245 37.542C101.48 37.6951 98.8776 38.2308 97.9593 38.3838C96.1225 38.6134 94.5154 38.7665 92.6786 38.69C92.3725 38.6134 92.296 38.9961 92.5256 39.0726Z" fill="#231F20"/>
<path d="M98.7859 41.2347C98.9207 40.0589 98.4173 39.0355 97.6614 38.9489C96.9055 38.8622 96.1835 39.7451 96.0487 40.9209C95.914 42.0966 96.4174 43.1201 97.1733 43.2067C97.9291 43.2934 98.6512 42.4105 98.7859 41.2347Z" fill="#231F20"/>
<path d="M96.505 56.5983C96.505 56.5983 95.5101 57.0575 94.2091 56.6748C92.5254 56.1391 92.3723 56.5983 91.9131 57.0575C91.7601 57.2106 91.3774 57.5932 91.1478 57.9759C90.5356 57.4402 89.2346 56.4453 88.3162 56.7514C85.408 57.8993 81.2754 57.5932 81.2754 57.5932C82.2703 59.3534 87.5509 63.7157 91.6836 62.6442C94.5917 61.8789 96.505 56.5983 96.505 56.5983Z" fill="#F65E66"/>
<path d="M60.2295 44.5828C62.3724 49.3277 63.7499 52.6185 62.2959 54.9145C59.6938 58.9706 52.8061 53.843 50.6632 49.0981C48.5203 44.3532 48.8265 39.6849 51.1989 38.5369C53.6479 37.4655 58.0867 39.8379 60.2295 44.5828Z" fill="#FFC7D9"/>
<path d="M100.179 9.07263C96.3522 3.33284 85.1022 -1.33553 71.2502 0.348143C61.6839 1.57263 53.189 4.86345 56.939 11.5981C57.3216 12.2869 57.7043 12.9757 58.0869 13.5114C54.5665 15.6543 50.6634 18.4859 48.9798 21.4706C45.4594 27.8226 52.5767 37.6951 52.5767 37.6951L58.1634 41.0624C58.1634 41.0624 61.8369 34.8635 65.5104 30.5777C68.5716 26.9808 69.643 20.3992 68.5716 16.2665C74.0818 14.6594 86.4798 11.139 89.2349 17.2614C89.9236 18.792 89.4645 21.7767 86.4032 21.7002C86.4032 21.7002 87.2451 24.6849 89.8471 25.9094C93.2145 27.5165 100.868 27.7461 102.781 22.0828V22.0063C102.781 21.9298 105 16.4196 100.179 9.07263Z" fill="url(#paint76_linear)"/>
<path d="M140.663 150.731C140.587 151.037 140.587 151.266 140.51 151.573C140.51 151.649 140.51 151.649 140.51 151.726C140.51 151.955 140.434 152.185 140.434 152.414C140.357 152.95 140.281 153.486 140.204 154.022C140.204 154.175 140.204 154.251 140.128 154.404C140.128 154.481 140.128 154.557 140.128 154.557C139.975 155.858 139.745 157.006 139.668 157.618C139.592 158.001 139.592 158.154 139.592 158.154C139.592 158.154 139.592 158.384 139.515 158.766C139.439 159.302 139.209 160.067 138.903 160.374C138.597 160.68 138.138 161.292 137.526 162.134C137.296 162.44 136.99 162.823 136.684 163.205C136.071 164.047 135.459 164.889 134.77 165.807C133.469 167.567 131.939 169.404 130.638 170.782C130.026 171.394 129.49 171.853 128.954 172.236C127.5 173.307 126.199 174.226 125.281 174.914C124.056 175.833 122.755 176.598 121.301 177.134C110.74 180.96 67.1174 196.343 49.9745 194.583C49.9745 194.583 38.1123 194.812 33.3674 192.669C32.2959 192.21 31.6072 191.598 31.4541 190.909L39.8725 181.726L46.7602 174.149C46.7602 174.149 46.9898 174.149 47.449 174.149C48.2908 174.149 49.9745 174.073 52.1174 173.919C67.0408 173.231 108.444 171.011 115.944 167.414L116.709 165.96C116.709 165.96 116.862 165.425 117.092 164.583C117.092 164.43 117.168 164.353 117.168 164.2C117.245 163.817 117.398 163.358 117.551 162.899C117.551 162.823 117.628 162.669 117.628 162.593C117.628 162.516 117.628 162.516 117.704 162.44C117.857 161.828 118.087 161.215 118.24 160.68C118.469 159.991 118.699 159.379 118.929 159.149C119.082 158.919 119.77 158.154 120.612 157.236C121.454 156.317 122.526 155.169 123.597 154.022C126.122 151.343 128.801 148.435 129.337 147.669C129.566 147.287 129.796 146.904 130.102 146.445C131.02 144.991 132.398 143.231 134.005 143.46C134.388 143.537 134.694 143.613 134.924 143.766C135.077 143.919 135.23 143.996 135.306 144.149C135.536 144.532 135.612 144.991 135.459 145.603C135.306 146.215 134.923 146.981 134.464 147.823C133.24 149.812 131.862 152.874 131.327 154.022C131.173 154.328 131.097 154.481 131.097 154.481C131.097 154.481 131.173 155.093 131.403 155.552C131.633 155.935 131.939 156.317 132.475 156.241C132.628 156.241 132.781 156.164 132.934 156.088C133.622 155.782 134.541 154.251 135.306 152.567C135.383 152.338 135.459 152.108 135.612 151.955C135.765 151.802 135.765 151.496 135.918 151.343C136.071 151.037 136.148 150.807 136.301 150.501C136.913 149.047 137.219 147.823 137.219 147.669C137.066 147.287 136.148 144.685 136.148 144.685C136.148 144.685 135.995 142.159 136.684 141.93C136.76 141.93 136.837 141.93 136.913 141.93C136.913 141.93 136.913 141.93 136.99 141.93C137.219 142.006 137.449 142.236 137.832 142.618C139.668 144.914 140.663 147.593 140.893 148.282C140.893 148.358 140.893 148.358 140.969 148.435C140.893 148.741 140.816 149.583 140.663 150.731Z" fill="#FFC7D9"/>
<path d="M51.1992 91.4958C51.1992 91.4958 68.036 118.97 79.286 118.435C90.8421 117.899 91.837 93.9448 91.6074 89.2765L84.6431 86.4448L57.0921 88.1285L51.1992 91.4958Z" fill="#FFC7D9"/>
<path d="M139.974 161.215C139.821 161.827 139.592 162.669 139.133 163.358C137.832 165.348 131.02 170.705 130.638 171.011L132.092 168.103L134.311 163.511L138.214 160.45L138.291 160.373L138.826 159.991L139.668 158.843C139.668 158.919 139.745 159.072 139.821 159.302C139.898 159.532 139.974 159.761 140.051 160.067C140.051 160.144 140.051 160.22 140.127 160.297C140.051 160.68 140.051 160.986 139.974 161.215Z" fill="#FFC7D9"/>
<path d="M33.3674 192.899C32.2959 192.44 31.6072 191.828 31.4541 191.139L39.8725 181.955L47.449 174.379C48.2908 174.379 48.9796 174.302 51.199 174.226L33.3674 192.899Z" fill="#D19996"/>
<path d="M28.0103 194.965C34.4389 190.603 48.8266 174.226 48.8266 174.226C48.8266 174.226 44.3113 134.889 43.9286 121.037C43.3929 103.817 34.1327 99.5317 34.1327 99.5317C34.1327 99.5317 22.4235 104.277 21.7348 123.868C21.2756 136.19 23.648 186.7 28.0103 194.965Z" fill="url(#paint77_linear)"/>
<path d="M98.801 59.4297L105.383 64.2511" stroke="#D19996" stroke-width="0.75" stroke-miterlimit="10" stroke-linecap="round" stroke-linejoin="round"/>
<path d="M99.8726 55.7563L106.225 59.9655" stroke="#D19996" stroke-width="0.75" stroke-miterlimit="10" stroke-linecap="round" stroke-linejoin="round"/>
<path d="M137.449 147.822C137.372 147.898 136.913 149.199 136.301 150.73C136.225 151.036 136.071 151.266 135.918 151.572C135.842 151.801 135.765 152.031 135.612 152.184C135.536 152.414 135.459 152.643 135.306 152.796C134.847 153.868 134.388 154.863 133.929 155.551C133.393 156.47 133.01 156.929 132.551 156.929C132.092 156.929 131.862 156.47 131.48 155.858C131.25 155.475 131.02 155.016 130.638 154.557C129.796 153.409 131.173 150.883 132.628 148.281C133.469 146.674 134.847 144.301 134.464 143.842C134.388 143.766 134.311 143.689 134.082 143.689C133.24 143.689 131.709 144.837 130.026 146.444C128.036 148.358 125.663 151.036 123.52 153.562C122.449 154.863 121.378 156.164 120.459 157.235C119.923 157.924 119.388 158.613 119.005 159.148L117.551 162.822L117.015 164.276C117.015 164.276 116.633 163.893 116.403 163.74L117.321 161.291L118.24 158.842C118.24 158.842 118.24 158.766 118.316 158.766C118.852 158.077 120.918 155.322 123.52 152.261C127.194 147.898 131.862 142.924 134.082 142.924C134.464 142.924 134.847 143.077 135.077 143.383C135.23 143.613 135.306 143.919 135.306 144.301C135.23 145.22 134.464 146.75 133.316 148.74C132.245 150.73 130.714 153.485 131.25 154.174C131.633 154.71 131.862 155.169 132.092 155.551C132.245 155.781 132.398 156.164 132.551 156.24C132.551 156.164 132.781 156.011 133.24 155.245C134.464 153.179 136.225 148.664 136.607 147.745C136.225 147.057 135 144.301 136.454 140.934C136.454 141.011 136.531 141.164 136.531 141.24C136.531 141.24 136.684 141.623 136.837 142.159C135.995 144.761 137.296 147.516 137.372 147.516C137.526 147.592 137.526 147.669 137.449 147.822Z" fill="#D19996"/>
<path d="M217.806 67.5422L263.495 34.7871C256.99 29.6595 249.72 25.3738 241.76 21.7769L206.327 52.8483L217.806 67.5422Z" fill="url(#paint78_linear)"/>
<path d="M276.811 153.485L298.24 149.659C299.158 143.536 299.694 136.955 299.924 130.067L273.291 137.567L276.811 153.485Z" fill="url(#paint79_linear)"/>
<path d="M225.459 223.052L242.832 226.879C253.01 222.134 262.041 216.241 269.694 208.971L228.827 204.073L225.459 223.052Z" fill="url(#paint80_linear)"/>
<defs>
<linearGradient id="paint0_linear" x1="166.244" y1="170.434" x2="179.876" y2="157.569" gradientUnits="userSpaceOnUse">
<stop stop-color="#FF777A"/>
<stop offset="0.3099" stop-color="#FF7D7B"/>
<stop offset="0.713" stop-color="#FF8D7E"/>
<stop offset="1" stop-color="#FF9D81"/>
</linearGradient>
<linearGradient id="paint1_linear" x1="167.765" y1="167.834" x2="184.778" y2="175.698" gradientUnits="userSpaceOnUse">
<stop stop-color="#FF777A"/>
<stop offset="0.3099" stop-color="#FF7D7B"/>
<stop offset="0.713" stop-color="#FF8D7E"/>
<stop offset="1" stop-color="#FF9D81"/>
</linearGradient>
<linearGradient id="paint2_linear" x1="170.217" y1="168.03" x2="172.591" y2="186.624" gradientUnits="userSpaceOnUse">
<stop stop-color="#FF777A"/>
<stop offset="0.3099" stop-color="#FF7D7B"/>
<stop offset="0.713" stop-color="#FF8D7E"/>
<stop offset="1" stop-color="#FF9D81"/>
</linearGradient>
<linearGradient id="paint3_linear" x1="171.436" y1="170.319" x2="156.945" y2="182.208" gradientUnits="userSpaceOnUse">
<stop stop-color="#FF777A"/>
<stop offset="0.3099" stop-color="#FF7D7B"/>
<stop offset="0.713" stop-color="#FF8D7E"/>
<stop offset="1" stop-color="#FF9D81"/>
</linearGradient>
<linearGradient id="paint4_linear" x1="170.091" y1="172.565" x2="152.321" y2="166.604" gradientUnits="userSpaceOnUse">
<stop stop-color="#FF777A"/>
<stop offset="0.3099" stop-color="#FF7D7B"/>
<stop offset="0.713" stop-color="#FF8D7E"/>
<stop offset="1" stop-color="#FF9D81"/>
</linearGradient>
<linearGradient id="paint5_linear" x1="167.524" y1="172.565" x2="163.133" y2="154.344" gradientUnits="userSpaceOnUse">
<stop stop-color="#FF777A"/>
<stop offset="0.3099" stop-color="#FF7D7B"/>
<stop offset="0.713" stop-color="#FF8D7E"/>
<stop offset="1" stop-color="#FF9D81"/>
</linearGradient>
<linearGradient id="paint6_linear" x1="204.498" y1="151.268" x2="220.392" y2="136.269" gradientUnits="userSpaceOnUse">
<stop stop-color="#FF777A"/>
<stop offset="0.3099" stop-color="#FF7D7B"/>
<stop offset="0.713" stop-color="#FF8D7E"/>
<stop offset="1" stop-color="#FF9D81"/>
</linearGradient>
<linearGradient id="paint7_linear" x1="206.238" y1="148.225" x2="226.074" y2="157.395" gradientUnits="userSpaceOnUse">
<stop stop-color="#FF777A"/>
<stop offset="0.3099" stop-color="#FF7D7B"/>
<stop offset="0.713" stop-color="#FF8D7E"/>
<stop offset="1" stop-color="#FF9D81"/>
</linearGradient>
<linearGradient id="paint8_linear" x1="209.125" y1="148.458" x2="211.893" y2="170.137" gradientUnits="userSpaceOnUse">
<stop stop-color="#FF777A"/>
<stop offset="0.3099" stop-color="#FF7D7B"/>
<stop offset="0.713" stop-color="#FF8D7E"/>
<stop offset="1" stop-color="#FF9D81"/>
</linearGradient>
<linearGradient id="paint9_linear" x1="210.536" y1="151.125" x2="193.641" y2="164.987" gradientUnits="userSpaceOnUse">
<stop stop-color="#FF777A"/>
<stop offset="0.3099" stop-color="#FF7D7B"/>
<stop offset="0.713" stop-color="#FF8D7E"/>
<stop offset="1" stop-color="#FF9D81"/>
</linearGradient>
<linearGradient id="paint10_linear" x1="208.975" y1="153.736" x2="188.256" y2="146.787" gradientUnits="userSpaceOnUse">
<stop stop-color="#FF777A"/>
<stop offset="0.3099" stop-color="#FF7D7B"/>
<stop offset="0.713" stop-color="#FF8D7E"/>
<stop offset="1" stop-color="#FF9D81"/>
</linearGradient>
<linearGradient id="paint11_linear" x1="205.979" y1="153.753" x2="200.86" y2="132.509" gradientUnits="userSpaceOnUse">
<stop stop-color="#FF777A"/>
<stop offset="0.3099" stop-color="#FF7D7B"/>
<stop offset="0.713" stop-color="#FF8D7E"/>
<stop offset="1" stop-color="#FF9D81"/>
</linearGradient>
<linearGradient id="paint12_linear" x1="204.064" y1="153.062" x2="217.33" y2="144.417" gradientUnits="userSpaceOnUse">
<stop stop-color="#FAE76E"/>
<stop offset="0.5212" stop-color="#FACC35"/>
<stop offset="1" stop-color="#FAB400"/>
</linearGradient>
<linearGradient id="paint13_linear" x1="123.535" y1="149.53" x2="207.312" y2="182.304" gradientUnits="userSpaceOnUse">
<stop stop-color="white"/>
<stop offset="0.2599" stop-color="#FBFCFE"/>
<stop offset="0.521" stop-color="#EFF2FA"/>
<stop offset="0.7818" stop-color="#DBE1F3"/>
<stop offset="1" stop-color="#C4CEEC"/>
</linearGradient>
<linearGradient id="paint14_linear" x1="128.509" y1="245.049" x2="218.389" y2="186.479" gradientUnits="userSpaceOnUse">
<stop stop-color="white"/>
<stop offset="0.2599" stop-color="#FBFCFE"/>
<stop offset="0.521" stop-color="#EFF2FA"/>
<stop offset="0.7818" stop-color="#DBE1F3"/>
<stop offset="1" stop-color="#C4CEEC"/>
</linearGradient>
<linearGradient id="paint15_linear" x1="142.141" y1="265.968" x2="232.021" y2="207.398" gradientUnits="userSpaceOnUse">
<stop stop-color="white"/>
<stop offset="0.2599" stop-color="#FBFCFE"/>
<stop offset="0.521" stop-color="#EFF2FA"/>
<stop offset="0.7818" stop-color="#DBE1F3"/>
<stop offset="1" stop-color="#C4CEEC"/>
</linearGradient>
<linearGradient id="paint16_linear" x1="194.272" y1="152.039" x2="201.743" y2="149.047" gradientUnits="userSpaceOnUse">
<stop stop-color="#FAE76E"/>
<stop offset="0.5212" stop-color="#FACC35"/>
<stop offset="1" stop-color="#FAB400"/>
</linearGradient>
<linearGradient id="paint17_linear" x1="161.249" y1="188.018" x2="164.173" y2="179.07" gradientUnits="userSpaceOnUse">
<stop stop-color="#FAE76E"/>
<stop offset="0.5212" stop-color="#FACC35"/>
<stop offset="1" stop-color="#FAB400"/>
</linearGradient>
<linearGradient id="paint18_linear" x1="168.913" y1="167.086" x2="172.362" y2="158.326" gradientUnits="userSpaceOnUse">
<stop stop-color="#FAE76E"/>
<stop offset="0.5212" stop-color="#FACC35"/>
<stop offset="1" stop-color="#FAB400"/>
</linearGradient>
<linearGradient id="paint19_linear" x1="184.269" y1="170.37" x2="203.077" y2="152.62" gradientUnits="userSpaceOnUse">
<stop stop-color="#FF777A"/>
<stop offset="0.3099" stop-color="#FF7D7B"/>
<stop offset="0.713" stop-color="#FF8D7E"/>
<stop offset="1" stop-color="#FF9D81"/>
</linearGradient>
<linearGradient id="paint20_linear" x1="186.31" y1="166.774" x2="209.783" y2="177.625" gradientUnits="userSpaceOnUse">
<stop stop-color="#FF777A"/>
<stop offset="0.3099" stop-color="#FF7D7B"/>
<stop offset="0.713" stop-color="#FF8D7E"/>
<stop offset="1" stop-color="#FF9D81"/>
</linearGradient>
<linearGradient id="paint21_linear" x1="189.744" y1="167.05" x2="193.019" y2="192.704" gradientUnits="userSpaceOnUse">
<stop stop-color="#FF777A"/>
<stop offset="0.3099" stop-color="#FF7D7B"/>
<stop offset="0.713" stop-color="#FF8D7E"/>
<stop offset="1" stop-color="#FF9D81"/>
</linearGradient>
<linearGradient id="paint22_linear" x1="191.41" y1="170.208" x2="171.417" y2="186.612" gradientUnits="userSpaceOnUse">
<stop stop-color="#FF777A"/>
<stop offset="0.3099" stop-color="#FF7D7B"/>
<stop offset="0.713" stop-color="#FF8D7E"/>
<stop offset="1" stop-color="#FF9D81"/>
</linearGradient>
<linearGradient id="paint23_linear" x1="189.566" y1="173.297" x2="165.048" y2="165.073" gradientUnits="userSpaceOnUse">
<stop stop-color="#FF777A"/>
<stop offset="0.3099" stop-color="#FF7D7B"/>
<stop offset="0.713" stop-color="#FF8D7E"/>
<stop offset="1" stop-color="#FF9D81"/>
</linearGradient>
<linearGradient id="paint24_linear" x1="186.021" y1="173.322" x2="179.963" y2="148.183" gradientUnits="userSpaceOnUse">
<stop stop-color="#FF777A"/>
<stop offset="0.3099" stop-color="#FF7D7B"/>
<stop offset="0.713" stop-color="#FF8D7E"/>
<stop offset="1" stop-color="#FF9D81"/>
</linearGradient>
<linearGradient id="paint25_linear" x1="183.769" y1="172.494" x2="199.467" y2="162.265" gradientUnits="userSpaceOnUse">
<stop stop-color="#FAE76E"/>
<stop offset="0.5212" stop-color="#FACC35"/>
<stop offset="1" stop-color="#FAB400"/>
</linearGradient>
<linearGradient id="paint26_linear" x1="198.135" y1="161.465" x2="211.767" y2="148.601" gradientUnits="userSpaceOnUse">
<stop stop-color="#FF777A"/>
<stop offset="0.3099" stop-color="#FF7D7B"/>
<stop offset="0.713" stop-color="#FF8D7E"/>
<stop offset="1" stop-color="#FF9D81"/>
</linearGradient>
<linearGradient id="paint27_linear" x1="199.648" y1="158.859" x2="216.661" y2="166.724" gradientUnits="userSpaceOnUse">
<stop stop-color="#FF777A"/>
<stop offset="0.3099" stop-color="#FF7D7B"/>
<stop offset="0.713" stop-color="#FF8D7E"/>
<stop offset="1" stop-color="#FF9D81"/>
</linearGradient>
<linearGradient id="paint28_linear" x1="202.102" y1="159.056" x2="204.475" y2="177.65" gradientUnits="userSpaceOnUse">
<stop stop-color="#FF777A"/>
<stop offset="0.3099" stop-color="#FF7D7B"/>
<stop offset="0.713" stop-color="#FF8D7E"/>
<stop offset="1" stop-color="#FF9D81"/>
</linearGradient>
<linearGradient id="paint29_linear" x1="203.324" y1="161.345" x2="188.833" y2="173.234" gradientUnits="userSpaceOnUse">
<stop stop-color="#FF777A"/>
<stop offset="0.3099" stop-color="#FF7D7B"/>
<stop offset="0.713" stop-color="#FF8D7E"/>
<stop offset="1" stop-color="#FF9D81"/>
</linearGradient>
<linearGradient id="paint30_linear" x1="201.978" y1="163.585" x2="184.208" y2="157.624" gradientUnits="userSpaceOnUse">
<stop stop-color="#FF777A"/>
<stop offset="0.3099" stop-color="#FF7D7B"/>
<stop offset="0.713" stop-color="#FF8D7E"/>
<stop offset="1" stop-color="#FF9D81"/>
</linearGradient>
<linearGradient id="paint31_linear" x1="199.407" y1="163.591" x2="195.016" y2="145.37" gradientUnits="userSpaceOnUse">
<stop stop-color="#FF777A"/>
<stop offset="0.3099" stop-color="#FF7D7B"/>
<stop offset="0.713" stop-color="#FF8D7E"/>
<stop offset="1" stop-color="#FF9D81"/>
</linearGradient>
<linearGradient id="paint32_linear" x1="197.761" y1="163.014" x2="209.139" y2="155.6" gradientUnits="userSpaceOnUse">
<stop stop-color="#FAE76E"/>
<stop offset="0.5212" stop-color="#FACC35"/>
<stop offset="1" stop-color="#FAB400"/>
</linearGradient>
<linearGradient id="paint33_linear" x1="177.995" y1="158.787" x2="191.627" y2="145.922" gradientUnits="userSpaceOnUse">
<stop stop-color="#FF777A"/>
<stop offset="0.3099" stop-color="#FF7D7B"/>
<stop offset="0.713" stop-color="#FF8D7E"/>
<stop offset="1" stop-color="#FF9D81"/>
</linearGradient>
<linearGradient id="paint34_linear" x1="179.511" y1="156.175" x2="196.524" y2="164.04" gradientUnits="userSpaceOnUse">
<stop stop-color="#FF777A"/>
<stop offset="0.3099" stop-color="#FF7D7B"/>
<stop offset="0.713" stop-color="#FF8D7E"/>
<stop offset="1" stop-color="#FF9D81"/>
</linearGradient>
<linearGradient id="paint35_linear" x1="181.96" y1="156.376" x2="184.334" y2="174.97" gradientUnits="userSpaceOnUse">
<stop stop-color="#FF777A"/>
<stop offset="0.3099" stop-color="#FF7D7B"/>
<stop offset="0.713" stop-color="#FF8D7E"/>
<stop offset="1" stop-color="#FF9D81"/>
</linearGradient>
<linearGradient id="paint36_linear" x1="183.183" y1="158.667" x2="168.692" y2="170.557" gradientUnits="userSpaceOnUse">
<stop stop-color="#FF777A"/>
<stop offset="0.3099" stop-color="#FF7D7B"/>
<stop offset="0.713" stop-color="#FF8D7E"/>
<stop offset="1" stop-color="#FF9D81"/>
</linearGradient>
<linearGradient id="paint37_linear" x1="181.838" y1="160.907" x2="164.068" y2="154.946" gradientUnits="userSpaceOnUse">
<stop stop-color="#FF777A"/>
<stop offset="0.3099" stop-color="#FF7D7B"/>
<stop offset="0.713" stop-color="#FF8D7E"/>
<stop offset="1" stop-color="#FF9D81"/>
</linearGradient>
<linearGradient id="paint38_linear" x1="179.267" y1="160.913" x2="174.876" y2="142.692" gradientUnits="userSpaceOnUse">
<stop stop-color="#FF777A"/>
<stop offset="0.3099" stop-color="#FF7D7B"/>
<stop offset="0.713" stop-color="#FF8D7E"/>
<stop offset="1" stop-color="#FF9D81"/>
</linearGradient>
<linearGradient id="paint39_linear" x1="177.622" y1="160.334" x2="189" y2="152.919" gradientUnits="userSpaceOnUse">
<stop stop-color="#FAE76E"/>
<stop offset="0.5212" stop-color="#FACC35"/>
<stop offset="1" stop-color="#FAB400"/>
</linearGradient>
<linearGradient id="paint40_linear" x1="170.611" y1="180.725" x2="184.243" y2="167.86" gradientUnits="userSpaceOnUse">
<stop stop-color="#FF777A"/>
<stop offset="0.3099" stop-color="#FF7D7B"/>
<stop offset="0.713" stop-color="#FF8D7E"/>
<stop offset="1" stop-color="#FF9D81"/>
</linearGradient>
<linearGradient id="paint41_linear" x1="172.132" y1="178.125" x2="189.145" y2="185.989" gradientUnits="userSpaceOnUse">
<stop stop-color="#FF777A"/>
<stop offset="0.3099" stop-color="#FF7D7B"/>
<stop offset="0.713" stop-color="#FF8D7E"/>
<stop offset="1" stop-color="#FF9D81"/>
</linearGradient>
<linearGradient id="paint42_linear" x1="174.584" y1="178.321" x2="176.958" y2="196.915" gradientUnits="userSpaceOnUse">
<stop stop-color="#FF777A"/>
<stop offset="0.3099" stop-color="#FF7D7B"/>
<stop offset="0.713" stop-color="#FF8D7E"/>
<stop offset="1" stop-color="#FF9D81"/>
</linearGradient>
<linearGradient id="paint43_linear" x1="175.804" y1="180.611" x2="161.313" y2="192.501" gradientUnits="userSpaceOnUse">
<stop stop-color="#FF777A"/>
<stop offset="0.3099" stop-color="#FF7D7B"/>
<stop offset="0.713" stop-color="#FF8D7E"/>
<stop offset="1" stop-color="#FF9D81"/>
</linearGradient>
<linearGradient id="paint44_linear" x1="174.461" y1="182.847" x2="156.69" y2="176.886" gradientUnits="userSpaceOnUse">
<stop stop-color="#FF777A"/>
<stop offset="0.3099" stop-color="#FF7D7B"/>
<stop offset="0.713" stop-color="#FF8D7E"/>
<stop offset="1" stop-color="#FF9D81"/>
</linearGradient>
<linearGradient id="paint45_linear" x1="171.891" y1="182.855" x2="167.5" y2="164.634" gradientUnits="userSpaceOnUse">
<stop stop-color="#FF777A"/>
<stop offset="0.3099" stop-color="#FF7D7B"/>
<stop offset="0.713" stop-color="#FF8D7E"/>
<stop offset="1" stop-color="#FF9D81"/>
</linearGradient>
<linearGradient id="paint46_linear" x1="170.238" y1="182.273" x2="181.616" y2="174.858" gradientUnits="userSpaceOnUse">
<stop stop-color="#FAE76E"/>
<stop offset="0.5212" stop-color="#FACC35"/>
<stop offset="1" stop-color="#FAB400"/>
</linearGradient>
<linearGradient id="paint47_linear" x1="207.669" y1="101.918" x2="223.437" y2="119.737" gradientUnits="userSpaceOnUse">
<stop stop-color="white"/>
<stop offset="0.2622" stop-color="#FBFCFE"/>
<stop offset="0.5255" stop-color="#EFF2FA"/>
<stop offset="0.7885" stop-color="#DBE1F4"/>
<stop offset="1" stop-color="#C5CFED"/>
</linearGradient>
<linearGradient id="paint48_linear" x1="203.022" y1="98.5545" x2="215.273" y2="109.687" gradientUnits="userSpaceOnUse">
<stop stop-color="white"/>
<stop offset="0.2622" stop-color="#FBFCFE"/>
<stop offset="0.5255" stop-color="#EFF2FA"/>
<stop offset="0.7885" stop-color="#DBE1F4"/>
<stop offset="1" stop-color="#C5CFED"/>
</linearGradient>
<linearGradient id="paint49_linear" x1="228.101" y1="91.0972" x2="241.205" y2="114.944" gradientUnits="userSpaceOnUse">
<stop stop-color="white"/>
<stop offset="0.2622" stop-color="#FBFCFE"/>
<stop offset="0.5255" stop-color="#EFF2FA"/>
<stop offset="0.7885" stop-color="#DBE1F4"/>
<stop offset="1" stop-color="#C5CFED"/>
</linearGradient>
<linearGradient id="paint50_linear" x1="226.405" y1="84.7574" x2="233.669" y2="102.239" gradientUnits="userSpaceOnUse">
<stop stop-color="white"/>
<stop offset="0.2622" stop-color="#FBFCFE"/>
<stop offset="0.5255" stop-color="#EFF2FA"/>
<stop offset="0.7885" stop-color="#DBE1F4"/>
<stop offset="1" stop-color="#C5CFED"/>
</linearGradient>
<linearGradient id="paint51_linear" x1="195.448" y1="123.047" x2="221.891" y2="129.46" gradientUnits="userSpaceOnUse">
<stop stop-color="white"/>
<stop offset="0.2622" stop-color="#FBFCFE"/>
<stop offset="0.5255" stop-color="#EFF2FA"/>
<stop offset="0.7885" stop-color="#DBE1F4"/>
<stop offset="1" stop-color="#C5CFED"/>
</linearGradient>
<linearGradient id="paint52_linear" x1="189.603" y1="119.985" x2="207.405" y2="126.416" gradientUnits="userSpaceOnUse">
<stop stop-color="white"/>
<stop offset="0.2622" stop-color="#FBFCFE"/>
<stop offset="0.5255" stop-color="#EFF2FA"/>
<stop offset="0.7885" stop-color="#DBE1F4"/>
<stop offset="1" stop-color="#C5CFED"/>
</linearGradient>
<linearGradient id="paint53_linear" x1="245.727" y1="80.2031" x2="245.978" y2="107.41" gradientUnits="userSpaceOnUse">
<stop stop-color="white"/>
<stop offset="0.2622" stop-color="#FBFCFE"/>
<stop offset="0.5255" stop-color="#EFF2FA"/>
<stop offset="0.7885" stop-color="#DBE1F4"/>
<stop offset="1" stop-color="#C5CFED"/>
</linearGradient>
<linearGradient id="paint54_linear" x1="244.171" y1="73.8907" x2="246.399" y2="92.6903" gradientUnits="userSpaceOnUse">
<stop stop-color="white"/>
<stop offset="0.2622" stop-color="#FBFCFE"/>
<stop offset="0.5255" stop-color="#EFF2FA"/>
<stop offset="0.7885" stop-color="#DBE1F4"/>
<stop offset="1" stop-color="#C5CFED"/>
</linearGradient>
<linearGradient id="paint55_linear" x1="268.214" y1="88.173" x2="257.752" y2="106.491" gradientUnits="userSpaceOnUse">
<stop stop-color="white"/>
<stop offset="0.2622" stop-color="#FBFCFE"/>
<stop offset="0.5255" stop-color="#EFF2FA"/>
<stop offset="0.7885" stop-color="#DBE1F4"/>
<stop offset="1" stop-color="#C5CFED"/>
</linearGradient>
<linearGradient id="paint56_linear" x1="269.565" y1="83.3056" x2="263.713" y2="96.7649" gradientUnits="userSpaceOnUse">
<stop stop-color="white"/>
<stop offset="0.2622" stop-color="#FBFCFE"/>
<stop offset="0.5255" stop-color="#EFF2FA"/>
<stop offset="0.7885" stop-color="#DBE1F4"/>
<stop offset="1" stop-color="#C5CFED"/>
</linearGradient>
<linearGradient id="paint57_linear" x1="252.219" y1="105.54" x2="242.189" y2="162.654" gradientUnits="userSpaceOnUse">
<stop stop-color="#FF777A"/>
<stop offset="0.3099" stop-color="#FF7D7B"/>
<stop offset="0.713" stop-color="#FF8D7E"/>
<stop offset="1" stop-color="#FF9D81"/>
</linearGradient>
<linearGradient id="paint58_linear" x1="255.105" y1="36.2588" x2="215.473" y2="261.936" gradientUnits="userSpaceOnUse">
<stop stop-color="#FF777A"/>
<stop offset="0.3099" stop-color="#FF7D7B"/>
<stop offset="0.713" stop-color="#FF8D7E"/>
<stop offset="1" stop-color="#FF9D81"/>
</linearGradient>
<linearGradient id="paint59_linear" x1="77.6359" y1="145.633" x2="87.8424" y2="349.764" gradientUnits="userSpaceOnUse">
<stop offset="0.00373848" stop-color="#405092"/>
<stop offset="0.1442" stop-color="#3C4783"/>
<stop offset="0.4963" stop-color="#323564"/>
<stop offset="0.7941" stop-color="#2C2951"/>
<stop offset="1" stop-color="#2A254A"/>
</linearGradient>
<linearGradient id="paint60_linear" x1="164.785" y1="13.8086" x2="171.197" y2="12.4214" gradientUnits="userSpaceOnUse">
<stop stop-color="#FF777A"/>
<stop offset="0.3099" stop-color="#FF7D7B"/>
<stop offset="0.713" stop-color="#FF8D7E"/>
<stop offset="1" stop-color="#FF9D81"/>
</linearGradient>
<linearGradient id="paint61_linear" x1="128.613" y1="59.6804" x2="160.389" y2="74.9886" gradientUnits="userSpaceOnUse">
<stop stop-color="#FAE76E"/>
<stop offset="0.5212" stop-color="#FACC35"/>
<stop offset="1" stop-color="#FAB400"/>
</linearGradient>
<linearGradient id="paint62_linear" x1="146.572" y1="22.4011" x2="178.348" y2="37.7093" gradientUnits="userSpaceOnUse">
<stop stop-color="#FAE76E"/>
<stop offset="0.5212" stop-color="#FACC35"/>
<stop offset="1" stop-color="#FAB400"/>
</linearGradient>
<linearGradient id="paint63_linear" x1="148.677" y1="20.52" x2="154.362" y2="17.2371" gradientUnits="userSpaceOnUse">
<stop stop-color="#FF777A"/>
<stop offset="0.3099" stop-color="#FF7D7B"/>
<stop offset="0.713" stop-color="#FF8D7E"/>
<stop offset="1" stop-color="#FF9D81"/>
</linearGradient>
<linearGradient id="paint64_linear" x1="154.403" y1="36.2007" x2="172.642" y2="57.2986" gradientUnits="userSpaceOnUse">
<stop stop-color="#FF777A"/>
<stop offset="0.3099" stop-color="#FF7D7B"/>
<stop offset="0.713" stop-color="#FF8D7E"/>
<stop offset="1" stop-color="#FF9D81"/>
</linearGradient>
<linearGradient id="paint65_linear" x1="132.483" y1="34.6323" x2="137.066" y2="29.9295" gradientUnits="userSpaceOnUse">
<stop stop-color="#FF777A"/>
<stop offset="0.3099" stop-color="#FF7D7B"/>
<stop offset="0.713" stop-color="#FF8D7E"/>
<stop offset="1" stop-color="#FF9D81"/>
</linearGradient>
<linearGradient id="paint66_linear" x1="119.283" y1="25.72" x2="233.708" y2="99.0139" gradientUnits="userSpaceOnUse">
<stop stop-color="#FAE76E"/>
<stop offset="0.5212" stop-color="#FACC35"/>
<stop offset="1" stop-color="#FAB400"/>
</linearGradient>
<linearGradient id="paint67_linear" x1="117.946" y1="52.328" x2="144.697" y2="60.2143" gradientUnits="userSpaceOnUse">
<stop stop-color="#FF777A"/>
<stop offset="0.3099" stop-color="#FF7D7B"/>
<stop offset="0.713" stop-color="#FF8D7E"/>
<stop offset="1" stop-color="#FF9D81"/>
</linearGradient>
<linearGradient id="paint68_linear" x1="120.801" y1="23.3558" x2="235.222" y2="96.6473" gradientUnits="userSpaceOnUse">
<stop stop-color="#FAE76E"/>
<stop offset="0.5212" stop-color="#FACC35"/>
<stop offset="1" stop-color="#FAB400"/>
</linearGradient>
<linearGradient id="paint69_linear" x1="163.893" y1="64.2485" x2="175.05" y2="84.6929" gradientUnits="userSpaceOnUse">
<stop stop-color="#FAE76E"/>
<stop offset="0.5212" stop-color="#FACC35"/>
<stop offset="1" stop-color="#FAB400"/>
</linearGradient>
<linearGradient id="paint70_linear" x1="174.509" y1="51.2063" x2="197.945" y2="51.2063" gradientUnits="userSpaceOnUse">
<stop stop-color="#FAE76E"/>
<stop offset="0.5212" stop-color="#FACC35"/>
<stop offset="1" stop-color="#FAB400"/>
</linearGradient>
<linearGradient id="paint71_linear" x1="91.8743" y1="-46.7809" x2="91.1712" y2="183.847" gradientUnits="userSpaceOnUse">
<stop offset="0.00373848" stop-color="#405092"/>
<stop offset="0.1442" stop-color="#3C4783"/>
<stop offset="0.4963" stop-color="#323564"/>
<stop offset="0.7941" stop-color="#2C2951"/>
<stop offset="1" stop-color="#2A254A"/>
</linearGradient>
<linearGradient id="paint72_linear" x1="100.834" y1="129.557" x2="123.65" y2="129.557" gradientUnits="userSpaceOnUse">
<stop stop-color="#FF777A"/>
<stop offset="0.3099" stop-color="#FF7D7B"/>
<stop offset="0.713" stop-color="#FF8D7E"/>
<stop offset="1" stop-color="#FF9D81"/>
</linearGradient>
<linearGradient id="paint73_linear" x1="41.111" y1="-46.9365" x2="40.4078" y2="183.691" gradientUnits="userSpaceOnUse">
<stop offset="0.00373848" stop-color="#405092"/>
<stop offset="0.1442" stop-color="#3C4783"/>
<stop offset="0.4963" stop-color="#323564"/>
<stop offset="0.7941" stop-color="#2C2951"/>
<stop offset="1" stop-color="#2A254A"/>
</linearGradient>
<linearGradient id="paint74_linear" x1="32.2298" y1="141.164" x2="111.497" y2="141.164" gradientUnits="userSpaceOnUse">
<stop stop-color="#FF777A"/>
<stop offset="0.3099" stop-color="#FF7D7B"/>
<stop offset="0.713" stop-color="#FF8D7E"/>
<stop offset="1" stop-color="#FF9D81"/>
</linearGradient>
<linearGradient id="paint75_linear" x1="71.9484" y1="-46.8422" x2="71.2452" y2="183.786" gradientUnits="userSpaceOnUse">
<stop offset="0.00373848" stop-color="#405092"/>
<stop offset="0.1442" stop-color="#3C4783"/>
<stop offset="0.4963" stop-color="#323564"/>
<stop offset="0.7941" stop-color="#2C2951"/>
<stop offset="1" stop-color="#2A254A"/>
</linearGradient>
<linearGradient id="paint76_linear" x1="75.883" y1="-46.8298" x2="75.1799" y2="183.798" gradientUnits="userSpaceOnUse">
<stop offset="0.00373848" stop-color="#405092"/>
<stop offset="0.1442" stop-color="#3C4783"/>
<stop offset="0.4963" stop-color="#323564"/>
<stop offset="0.7941" stop-color="#2C2951"/>
<stop offset="1" stop-color="#2A254A"/>
</linearGradient>
<linearGradient id="paint77_linear" x1="-11.1669" y1="145.681" x2="56.1494" y2="148.175" gradientUnits="userSpaceOnUse">
<stop stop-color="#FF777A"/>
<stop offset="0.3099" stop-color="#FF7D7B"/>
<stop offset="0.713" stop-color="#FF8D7E"/>
<stop offset="1" stop-color="#FF9D81"/>
</linearGradient>
<linearGradient id="paint78_linear" x1="222.912" y1="53.795" x2="300.309" y2="-12.595" gradientUnits="userSpaceOnUse">
<stop offset="0.00373848" stop-color="#405092"/>
<stop offset="0.1442" stop-color="#3C4783"/>
<stop offset="0.4963" stop-color="#323564"/>
<stop offset="0.7941" stop-color="#2C2951"/>
<stop offset="1" stop-color="#2A254A"/>
</linearGradient>
<linearGradient id="paint79_linear" x1="285.685" y1="143.554" x2="371.604" y2="120.388" gradientUnits="userSpaceOnUse">
<stop offset="0.00373848" stop-color="#405092"/>
<stop offset="0.1442" stop-color="#3C4783"/>
<stop offset="0.4963" stop-color="#323564"/>
<stop offset="0.7941" stop-color="#2C2951"/>
<stop offset="1" stop-color="#2A254A"/>
</linearGradient>
<linearGradient id="paint80_linear" x1="242.498" y1="216.121" x2="369.146" y2="232.554" gradientUnits="userSpaceOnUse">
<stop offset="0.00373848" stop-color="#405092"/>
<stop offset="0.1442" stop-color="#3C4783"/>
<stop offset="0.4963" stop-color="#323564"/>
<stop offset="0.7941" stop-color="#2C2951"/>
<stop offset="1" stop-color="#2A254A"/>
</linearGradient>
</defs>
</svg>
