<svg width="300" height="236" viewBox="0 0 300 236" fill="none" xmlns="http://www.w3.org/2000/svg">
<path d="M152.755 0C63.3673 0 0 28.2398 0 117.628C0 169.056 20.9694 200.357 55.7908 217.73L68.0357 194.77C71.7857 186.505 80.5102 179.847 89.2347 179.847C99.1837 179.847 109.056 188.418 111.658 198.138L126.352 234.796C134.847 235.408 143.648 235.714 152.755 235.714C242.066 235.714 300 207.015 300 117.628C300 28.3163 242.143 0 152.755 0Z" fill="#8F78F3"/>
<path opacity="0.35" d="M152.755 235.714C235.638 235.714 291.505 210.995 299.082 135.995C293.954 139.133 287.908 145.561 280.791 156.505C244.975 211.607 135.383 194.771 89.8469 179.847C44.3112 164.924 61.2245 144.337 40.1786 117.857C19.2092 91.3777 2.7551 94.8215 2.7551 94.8215L1.14796 97.7297C0.382653 104.005 0 110.663 0 117.628C0 207.015 63.4439 235.714 152.755 235.714Z" fill="#7567D3"/>
<path d="M29.3113 194.541C26.7858 190.944 24.3368 187.5 22.5766 184.745L19.6685 186.888L20.7399 181.148C18.0613 173.648 22.6532 161.25 21.3521 149.388C21.1225 147.092 20.5103 144.949 19.6685 143.036L17.6021 144.337L18.597 141.046C14.5409 133.699 7.65316 130.026 8.34193 132.628C10.4083 140.511 10.5613 146.71 9.2603 161.786L10.5613 163.24L9.03071 164.694C8.95418 165.766 8.87765 166.837 8.72459 167.985C9.87255 170.817 11.097 173.495 12.4746 176.097C12.8572 170.893 14.0817 166.072 14.7705 162.322L15.2297 159.643C15.3062 159.108 15.3828 158.648 15.4593 158.189C17.143 146.021 10.6379 134.388 10.6379 134.388C10.7144 134.541 18.2144 145.791 16.3776 158.189C16.2246 159.567 15.9185 160.944 15.6889 162.398C14.7705 167.526 13.8521 173.495 14.9236 180.613C18.9797 187.5 23.8011 193.699 29.3113 199.133C28.6991 197.756 28.0868 196.225 27.5511 194.541H29.3113Z" fill="#3F51AA"/>
<path d="M15.6887 162.398C15.9183 160.944 16.2244 159.566 16.3775 158.189C18.2142 145.791 10.7142 134.541 10.6377 134.388C10.6377 134.388 17.1428 146.02 15.4591 158.189C15.3826 158.648 15.3061 159.107 15.2295 159.643L14.7703 162.321C14.0816 166.071 12.7806 170.816 12.4744 176.097C13.2397 177.627 14.0816 179.158 14.9234 180.612C13.852 173.495 14.7703 167.525 15.6887 162.398Z" fill="#3F51AA"/>
<path opacity="0.24" d="M15.6887 162.398C15.9183 160.944 16.2244 159.566 16.3775 158.189C18.2142 145.791 10.7142 134.541 10.6377 134.388C10.6377 134.388 17.1428 146.02 15.4591 158.189C15.3826 158.648 15.3061 159.107 15.2295 159.643L14.7703 162.321C14.0816 166.071 12.7806 170.816 12.4744 176.097C13.2397 177.627 14.0816 179.158 14.9234 180.612C13.852 173.495 14.7703 167.525 15.6887 162.398Z" fill="#282828"/>
<path d="M228.367 221.25C228.52 221.021 228.597 220.791 228.75 220.485C228.903 220.332 228.979 220.102 229.056 219.949C229.286 219.643 229.439 219.26 229.668 218.954C229.745 218.878 229.821 218.725 229.898 218.572C230.051 218.342 230.127 218.112 230.28 217.959C230.357 217.806 230.51 217.653 230.587 217.5C230.663 217.347 230.816 217.194 230.893 217.041C230.204 217.959 229.515 218.954 228.979 220.026C228.75 220.408 228.597 220.791 228.367 221.25Z" fill="#5263DD"/>
<path d="M241.225 209.694C240.919 208.393 240.995 206.71 241.531 204.949C238.929 205.179 236.786 204.414 236.021 202.807C235.714 202.194 235.714 201.506 235.867 200.74C235.714 200.817 235.638 200.817 235.485 200.817C232.347 201.888 229.668 203.266 227.296 204.873V209.159L225.077 208.011L224.082 207.475C218.189 213.062 215.204 220.638 213.827 227.602L215.97 229.057L215.663 229.21C218.648 228.521 221.633 227.679 224.464 226.837C225.536 222.858 227.066 218.955 229.822 215.664C231.658 213.827 236.021 211.684 241.225 209.694Z" fill="#5263DD"/>
<path d="M227.908 222.321C227.755 222.627 227.679 222.934 227.526 223.24C227.143 224.235 226.837 225.229 226.531 226.301H226.607C226.913 225.229 227.22 224.158 227.602 223.163C227.679 222.857 227.832 222.627 227.908 222.321Z" fill="#5263DD"/>
<path opacity="0.24" d="M228.214 221.633C228.291 221.48 228.367 221.327 228.367 221.25C228.214 221.633 228.061 221.939 227.908 222.321C227.985 222.092 228.138 221.862 228.214 221.633Z" fill="#282828"/>
<path opacity="0.24" d="M241.531 210.536C237.704 211.99 234.413 213.597 232.577 215.128C234.413 213.674 237.628 212.067 241.531 210.536Z" fill="#282828"/>
<path opacity="0.24" d="M231.811 215.816C231.735 215.893 231.658 215.969 231.658 216.046L231.811 215.816Z" fill="#282828"/>
<path d="M227.908 222.322C228.061 221.939 228.214 221.556 228.367 221.25C228.52 220.867 228.75 220.485 228.979 220.026C229.515 218.954 230.204 217.959 230.893 217.041V216.964C231.122 216.658 231.428 216.352 231.658 216.046C231.658 215.969 231.735 215.893 231.811 215.816C232.041 215.587 232.27 215.357 232.576 215.128C234.413 213.597 237.704 212.066 241.53 210.536C241.377 210.306 241.301 210 241.224 209.771C236.02 211.76 231.658 213.827 229.974 215.816C227.219 219.107 225.612 223.01 224.617 226.99C225.229 226.76 225.918 226.607 226.53 226.378C226.837 225.306 227.143 224.311 227.525 223.316C227.678 222.934 227.755 222.628 227.908 222.322Z" fill="#5263DD"/>
<path opacity="0.24" d="M227.908 222.322C228.061 221.939 228.214 221.556 228.367 221.25C228.52 220.867 228.75 220.485 228.979 220.026C229.515 218.954 230.204 217.959 230.893 217.041V216.964C231.122 216.658 231.428 216.352 231.658 216.046C231.658 215.969 231.735 215.893 231.811 215.816C232.041 215.587 232.27 215.357 232.576 215.128C234.413 213.597 237.704 212.066 241.53 210.536C241.377 210.306 241.301 210 241.224 209.771C236.02 211.76 231.658 213.827 229.974 215.816C227.219 219.107 225.612 223.01 224.617 226.99C225.229 226.76 225.918 226.607 226.53 226.378C226.837 225.306 227.143 224.311 227.525 223.316C227.678 222.934 227.755 222.628 227.908 222.322Z" fill="#282828"/>
<path d="M204.107 207.857L207.628 203.265C208.699 195.306 218.342 186.352 222.551 175.178C223.393 172.959 223.852 170.816 223.929 168.673L221.48 168.903L223.852 166.454C223.546 158.036 219.031 151.607 218.495 154.286C216.811 162.245 214.133 167.832 206.174 180.765L206.633 182.678L204.567 183.291C202.577 186.428 200.357 189.949 197.832 194.005C192.781 202.041 191.021 209.923 190.791 216.735L194.541 222.398L190.944 221.556C191.25 226.301 192.322 230.357 193.317 233.342C195.919 233.036 198.521 232.653 201.123 232.194C198.138 221.479 196.913 212.372 198.75 204.26C198.98 203.495 199.133 202.806 199.362 202.117L200.817 198.367C203.648 192.245 208.01 187.576 210.842 183.75L212.449 181.531C212.755 181.071 212.985 180.689 213.291 180.306C220.255 170.204 219.72 156.888 219.72 156.888C219.72 157.041 221.327 170.51 214.056 180.918C213.291 182.066 212.449 183.214 211.531 184.362C206.097 191.633 198.98 199.821 199.975 217.194L200.893 222.781C201.276 225.612 201.811 228.673 202.577 231.964C205.255 231.505 207.857 231.046 210.459 230.434C210.153 223.087 208.163 213.444 207.704 207.168L204.107 207.857Z" fill="#5263DD"/>
<path d="M210.842 183.75C211.378 183.061 211.913 182.372 212.372 181.684L210.842 183.75Z" fill="#5263DD"/>
<path d="M199.974 217.194C198.979 199.821 206.097 191.633 211.53 184.362C212.449 183.214 213.291 182.066 214.056 180.918C221.326 170.51 219.719 157.041 219.719 156.888C219.719 156.888 220.255 170.204 213.291 180.306C212.984 180.689 212.755 181.071 212.449 181.531L210.842 183.75L212.372 181.684C211.913 182.372 211.377 183.061 210.842 183.75C208.01 187.576 203.648 192.245 200.816 198.367L199.362 202.117C199.132 202.806 198.979 203.495 198.75 204.26C196.913 212.372 198.138 221.556 201.122 232.194C201.581 232.117 202.117 232.041 202.576 231.964C201.811 228.673 201.275 225.612 200.893 222.781L199.974 217.194Z" fill="#5263DD"/>
<path opacity="0.24" d="M199.974 217.194C198.979 199.821 206.097 191.633 211.53 184.362C212.449 183.214 213.291 182.066 214.056 180.918C221.326 170.51 219.719 157.041 219.719 156.888C219.719 156.888 220.255 170.204 213.291 180.306C212.984 180.689 212.755 181.071 212.449 181.531L210.842 183.75L212.372 181.684C211.913 182.372 211.377 183.061 210.842 183.75C208.01 187.576 203.648 192.245 200.816 198.367L199.362 202.117C199.132 202.806 198.979 203.495 198.75 204.26C196.913 212.372 198.138 221.556 201.122 232.194C201.581 232.117 202.117 232.041 202.576 231.964C201.811 228.673 201.275 225.612 200.893 222.781L199.974 217.194Z" fill="#282828"/>
<path d="M281.02 168.52L281.48 166.607C273.52 153.673 270.842 148.087 269.158 140.127C268.622 137.449 264.107 143.877 263.801 152.296L266.097 154.745L263.648 154.515C263.801 156.658 264.184 158.801 265.025 161.02C269.235 172.194 278.878 181.148 279.949 189.107L280.408 189.719C281.709 187.883 282.934 186.046 284.158 184.056C281.939 178.316 278.801 173.954 275.969 170.127C275.051 168.979 274.209 167.832 273.444 166.684C266.173 156.275 267.781 142.806 267.781 142.653C267.781 142.653 267.245 155.969 274.209 166.071C274.515 166.454 274.745 166.837 275.051 167.296L276.658 169.515C279.107 172.806 282.704 176.786 285.459 181.76C286.378 180.153 287.219 178.546 287.985 176.939C286.148 174.03 284.541 171.428 283.01 169.056L281.02 168.52Z" fill="#3F51AA"/>
<path d="M276.658 169.592L275.127 167.525C275.587 168.214 276.122 168.903 276.658 169.592Z" fill="#3F51AA"/>
<path d="M275.127 167.525L276.658 169.592L275.051 167.372C274.745 166.913 274.515 166.53 274.209 166.148C267.245 156.046 267.78 142.729 267.78 142.729C267.78 142.883 266.173 156.352 273.444 166.76C274.209 167.908 275.051 169.056 275.969 170.204C278.801 173.954 281.939 178.316 284.158 184.133C284.617 183.367 285.076 182.602 285.459 181.913C282.704 176.939 279.107 172.959 276.658 169.668C276.122 168.903 275.587 168.214 275.127 167.525Z" fill="#3F51AA"/>
<path opacity="0.24" d="M275.127 167.525L276.658 169.592L275.051 167.372C274.745 166.913 274.515 166.53 274.209 166.148C267.245 156.046 267.78 142.729 267.78 142.729C267.78 142.883 266.173 156.352 273.444 166.76C274.209 167.908 275.051 169.056 275.969 170.204C278.801 173.954 281.939 178.316 284.158 184.133C284.617 183.367 285.076 182.602 285.459 181.913C282.704 176.939 279.107 172.959 276.658 169.668C276.122 168.903 275.587 168.214 275.127 167.525Z" fill="#282828"/>
<path d="M31.3012 175.944C31.3012 175.179 31.3012 174.414 31.3778 173.725L31.9135 169.745C33.2145 163.087 36.4288 157.577 38.342 153.215C38.6482 152.373 39.0308 151.607 39.3369 150.842L38.342 153.215L39.4135 150.689C39.5665 150.23 39.7961 149.771 39.9492 149.312C44.3114 138.368 41.1737 126.046 40.8676 125.128V125.051C40.8676 125.051 40.8676 125.051 40.8676 125.128C41.1737 126.123 45.3063 138.368 41.0206 149.771C40.4849 150.995 39.9492 152.296 39.3369 153.674C35.74 161.939 30.5359 171.505 35.5104 188.189L37.7298 193.47C39.6431 198.827 42.5512 204.72 46.6073 211.301C47.9084 210.536 48.9033 209.235 49.439 207.092C51.1992 201.046 43.5461 185.587 40.638 176.786L37.2706 178.164L39.6431 172.883C38.8012 165 46.2247 154.056 47.7553 142.194C48.0614 139.898 47.9849 137.679 47.6022 135.613L45.2298 136.378L47.1431 133.546C45.0002 125.434 39.1073 120.23 39.1839 122.908C39.3369 131.021 38.0359 137.067 33.2145 151.454L34.1329 153.215L32.2961 154.286C31.0716 157.73 29.6941 161.709 28.1635 166.225C25.1022 175.179 25.1022 183.215 26.4798 189.949L31.3778 194.541H29.3114H27.6278C28.1635 196.148 28.6992 197.679 29.388 199.133C34.2094 203.878 39.5665 208.087 45.4594 211.837C36.888 198.215 31.3012 186.812 31.3012 175.944Z" fill="#5263DD"/>
<path opacity="0.24" d="M46.6069 211.302C46.5304 211.302 46.5304 211.302 46.6069 211.302C46.3008 211.455 46.0712 211.531 45.8416 211.608C45.6886 211.684 45.5355 211.761 45.459 211.837C45.459 211.837 45.459 211.837 45.459 211.914C45.5355 211.991 45.612 211.991 45.612 212.067L46.9131 211.914C46.76 211.684 46.6835 211.455 46.6069 211.302Z" fill="#282828"/>
<path d="M38.3418 153.214L39.3367 150.842C39.0306 151.607 38.6479 152.372 38.3418 153.214Z" fill="#5263DD"/>
<path opacity="0.24" d="M38.3418 153.214L39.3367 150.842C39.0306 151.607 38.6479 152.372 38.3418 153.214Z" fill="#282828"/>
<path d="M35.5105 188.189C30.536 171.505 35.74 161.939 39.337 153.674C39.9492 152.296 40.4849 150.995 41.0207 149.771C45.3064 138.368 41.1737 126.123 40.8676 125.128C41.0972 126.123 44.2349 138.368 39.9492 149.312C39.7962 149.771 39.5666 150.23 39.4135 150.689L38.3421 153.215C36.4288 157.577 33.2145 163.087 31.9135 169.745L31.3778 173.725C31.3013 174.414 31.3013 175.179 31.3013 175.944C31.3013 186.812 36.888 198.215 45.4594 211.837C45.6125 211.761 45.7656 211.684 45.8421 211.608C46.0717 211.531 46.3013 211.454 46.5309 211.301C46.5309 211.301 46.5309 211.301 46.6074 211.301C42.5513 204.72 39.7196 198.827 37.7298 193.47L35.5105 188.189Z" fill="#5263DD"/>
<path opacity="0.24" d="M35.5105 188.189C30.536 171.505 35.74 161.939 39.337 153.674C39.9492 152.296 40.4849 150.995 41.0207 149.771C45.3064 138.368 41.1737 126.123 40.8676 125.128C41.0972 126.123 44.2349 138.368 39.9492 149.312C39.7962 149.771 39.5666 150.23 39.4135 150.689L38.3421 153.215C36.4288 157.577 33.2145 163.087 31.9135 169.745L31.3778 173.725C31.3013 174.414 31.3013 175.179 31.3013 175.944C31.3013 186.812 36.888 198.215 45.4594 211.837C45.6125 211.761 45.7656 211.684 45.8421 211.608C46.0717 211.531 46.3013 211.454 46.5309 211.301C46.5309 211.301 46.5309 211.301 46.6074 211.301C42.5513 204.72 39.7196 198.827 37.7298 193.47L35.5105 188.189Z" fill="#282828"/>
<path d="M183.903 191.862C183.903 182.908 183.827 172.194 181.454 172.118C179.847 172.041 178.623 175.255 177.475 180.459L178.623 183.368L176.939 182.755C176.633 184.133 176.327 185.587 176.021 187.194C177.322 187.271 178.469 187.5 179.388 187.883C179.617 186.276 179.924 185.128 180.153 184.439C180.153 184.439 180.459 184.975 180.153 188.266C181.148 188.878 181.76 189.643 181.913 190.638C182.143 192.169 181.148 193.699 179.311 194.924C179.311 195.153 179.235 195.383 179.235 195.612C179.158 196.301 179.005 197.143 178.929 198.138C179.541 199.362 179.617 200.587 179.082 201.582C178.929 201.811 178.776 202.041 178.623 202.194C178.087 211.607 178.163 226.072 178.163 234.873C180.689 234.72 183.214 234.49 185.663 234.26C185.434 232.959 185.281 231.735 185.281 230.587C185.434 220.791 183.903 200.817 183.903 191.862Z" fill="#3F51AA"/>
<path d="M172.576 202.959C172.5 203.495 172.347 204.031 172.27 204.566C172.194 205.025 172.117 205.485 172.041 205.944C171.811 207.321 171.581 208.775 171.352 210.23L173.648 215.893L170.893 214.821C170.663 218.112 170.51 221.786 170.74 225.689C170.893 229.133 170.969 232.347 170.893 235.255C172.653 235.178 174.336 235.102 176.097 234.949C176.403 228.061 177.092 214.286 177.933 202.729C176.632 203.495 174.719 203.495 172.576 202.959Z" fill="#3F51AA"/>
<path d="M177.475 195.919C177.857 196.301 178.163 196.684 178.393 197.066C178.47 196.531 178.47 195.919 178.546 195.383C178.163 195.612 177.857 195.765 177.475 195.919Z" fill="#3F51AA"/>
<path d="M143.036 211.148C144.49 211.378 145.561 212.526 146.326 214.286C145.561 205.408 145.178 193.776 146.25 198.061C146.939 201.046 146.786 210.153 148.393 218.725C150 217.959 151.53 217.577 152.908 217.577C151.53 214.209 150.153 210.919 149.388 207.016C147.398 196.531 149.617 189.949 145.944 194.005C142.27 198.061 140.969 199.822 140.969 208.776C140.969 209.694 141.046 210.612 141.046 211.454C141.658 211.148 142.347 211.072 143.036 211.148Z" fill="#5263DD"/>
<path d="M156.275 227.526C156.046 226.684 155.893 225.919 155.663 225.077C155.357 225.689 154.974 226.225 154.515 226.837C155.127 227.067 155.74 227.297 156.275 227.526Z" fill="#5263DD"/>
<path d="M156.123 235.714C156.505 235.714 156.888 235.714 157.271 235.714C157.271 235.485 157.271 235.255 157.271 235.025C156.964 235.255 156.582 235.485 156.123 235.714Z" fill="#5263DD"/>
<path d="M146.25 214.286C146.786 215.663 147.092 217.424 147.015 219.337C147.398 219.107 147.857 218.878 148.24 218.648C146.633 210.077 146.786 201.046 146.097 197.985C145.102 193.776 145.561 205.485 146.25 214.286Z" fill="#282828"/>
<path d="M178.699 202.194C178.469 202.424 178.163 202.654 177.857 202.807C176.939 214.363 176.327 228.138 176.021 235.026C176.786 234.949 177.551 234.949 178.24 234.873C178.24 226.072 178.24 211.531 178.699 202.194Z" fill="#3F51AA"/>
<path opacity="0.24" d="M178.699 202.194C178.469 202.424 178.163 202.654 177.857 202.807C176.939 214.363 176.327 228.138 176.021 235.026C176.786 234.949 177.551 234.949 178.24 234.873C178.24 226.072 178.24 211.531 178.699 202.194Z" fill="#282828"/>
<path d="M180.23 184.439C180 185.128 179.694 186.353 179.464 187.883C179.77 188.036 180 188.113 180.23 188.266C180.536 184.975 180.23 184.439 180.23 184.439Z" fill="#3F51AA"/>
<path opacity="0.24" d="M180.23 184.439C180 185.128 179.694 186.353 179.464 187.883C179.77 188.036 180 188.113 180.23 188.266C180.536 184.975 180.23 184.439 180.23 184.439Z" fill="#282828"/>
<path d="M178.393 197.067C178.623 197.449 178.852 197.755 179.005 198.138C179.082 197.22 179.158 196.378 179.311 195.613C179.311 195.383 179.388 195.153 179.388 194.924C179.082 195.077 178.852 195.306 178.546 195.46C178.47 195.995 178.47 196.531 178.393 197.067Z" fill="#3F51AA"/>
<path opacity="0.24" d="M178.393 197.067C178.623 197.449 178.852 197.755 179.005 198.138C179.082 197.22 179.158 196.378 179.311 195.613C179.311 195.383 179.388 195.153 179.388 194.924C179.082 195.077 178.852 195.306 178.546 195.46C178.47 195.995 178.47 196.531 178.393 197.067Z" fill="#282828"/>
<path d="M159.49 231.353C159.413 229.822 158.189 228.445 156.275 227.526C155.74 227.297 155.127 227.067 154.515 226.837C154.974 226.225 155.357 225.69 155.663 225.077C156.964 222.628 157.194 220.256 155.969 218.802C155.281 217.96 154.133 217.501 152.832 217.501C151.454 217.501 149.923 217.883 148.316 218.649C147.934 218.878 147.474 219.108 147.092 219.337C147.168 217.424 146.862 215.664 146.326 214.286C145.638 212.526 144.49 211.378 143.036 211.149C142.347 211.072 141.658 211.149 141.046 211.455C139.439 212.22 137.985 213.98 137.066 216.429C134.617 213.292 131.48 211.761 129.26 212.909C127.041 214.057 126.505 217.501 127.73 221.327C125.281 221.327 123.061 222.016 121.684 223.011L126.428 234.797C126.582 234.797 126.658 234.797 126.811 234.797C126.811 233.496 127.653 231.965 129.107 230.664C127.194 229.746 125.969 228.368 126.199 226.914C126.428 225.154 128.724 224.006 131.556 224.006C130.714 221.404 131.097 219.031 132.627 218.266C134.158 217.501 136.301 218.572 137.985 220.715C138.903 218.343 140.51 216.735 142.117 217.042C143.877 217.348 145.025 219.797 144.872 222.781C147.321 221.251 149.847 221.021 150.995 222.399C152.066 223.623 151.531 225.843 149.923 227.909C151.99 228.445 153.367 229.669 153.444 231.047C153.52 232.654 151.684 234.184 149.158 234.72C149.388 235.026 149.617 235.332 149.77 235.638C150.842 235.638 151.837 235.638 152.908 235.638C154.056 235.638 155.127 235.638 156.275 235.638C156.658 235.409 157.117 235.179 157.423 234.95C158.724 234.031 159.566 232.73 159.49 231.353Z" fill="#F7B2E8"/>
<path d="M153.367 231.046C153.291 229.669 151.913 228.444 149.847 227.909C151.454 225.842 151.913 223.623 150.918 222.398C149.77 221.097 147.245 221.327 144.796 222.781C144.872 219.796 143.801 217.347 142.041 217.041C140.434 216.812 138.826 218.342 137.908 220.715C136.224 218.572 134.081 217.5 132.551 218.266C131.02 219.031 130.714 221.404 131.479 224.006C128.648 224.006 126.352 225.154 126.122 226.914C125.893 228.291 127.117 229.745 129.03 230.664C127.576 231.965 126.735 233.495 126.735 234.796C134.158 235.332 141.811 235.638 149.694 235.715C149.541 235.409 149.311 235.102 149.081 234.796C151.607 234.108 153.444 232.654 153.367 231.046ZM138.979 234.031C136.76 234.031 135 232.271 135 230.051C135 227.832 136.76 226.072 138.979 226.072C141.199 226.072 142.959 227.832 142.959 230.051C142.959 232.271 141.199 234.031 138.979 234.031Z" fill="#FFCCF5"/>
<path d="M138.98 234.03C141.177 234.03 142.959 232.249 142.959 230.051C142.959 227.853 141.177 226.071 138.98 226.071C136.782 226.071 135 227.853 135 230.051C135 232.249 136.782 234.03 138.98 234.03Z" fill="#FFCCF5"/>
<path d="M138.98 234.03C141.177 234.03 142.959 232.249 142.959 230.051C142.959 227.853 141.177 226.071 138.98 226.071C136.782 226.071 135 227.853 135 230.051C135 232.249 136.782 234.03 138.98 234.03Z" fill="url(#paint0_linear)"/>
<path d="M172.27 202.883C172.423 202.883 172.5 202.959 172.576 202.959C174.643 203.495 176.556 203.418 177.857 202.73C178.163 202.577 178.469 202.347 178.699 202.117C178.852 201.964 179.005 201.735 179.158 201.505C179.694 200.51 179.617 199.286 179.005 198.061C178.852 197.679 178.622 197.372 178.393 196.99C178.086 196.607 177.78 196.224 177.474 195.842C177.857 195.689 178.24 195.536 178.546 195.383C178.852 195.23 179.158 195.077 179.388 194.847C181.224 193.622 182.296 192.092 181.99 190.561C181.836 189.643 181.148 188.801 180.229 188.189C180 188.036 179.694 187.883 179.464 187.806C178.546 187.423 177.321 187.117 176.097 187.117C175.791 187.117 175.561 187.117 175.255 187.117C177.168 183.98 177.474 180.689 175.791 179.311C174.26 178.01 171.428 178.622 168.903 180.612C168.52 177.245 166.836 174.643 164.694 174.566C162.551 174.49 160.638 176.786 159.872 180.077C156.811 178.316 153.673 178.163 152.296 179.847C151.224 181.224 151.53 183.52 152.984 185.663C149.847 186.275 147.551 188.036 147.551 190.025C147.551 191.786 149.234 193.316 151.683 194.158C149.541 196.607 148.852 199.362 150.076 201.046C151.148 202.423 153.291 202.653 155.74 201.811C155.51 204.26 156.199 206.25 157.653 206.939C159.336 207.781 161.632 206.709 163.546 204.566C165.459 207.551 168.138 209.158 170.204 208.316C171.122 207.934 171.734 207.015 172.041 205.867C172.194 205.485 172.27 205.025 172.27 204.49C172.347 204.031 172.347 203.495 172.27 202.883ZM169.974 199.592C170.127 201.352 169.592 202.806 168.52 203.342C167.143 203.954 165.229 202.806 163.928 200.74C162.627 202.27 161.02 202.959 159.872 202.423C158.801 201.888 158.342 200.587 158.495 198.903C156.888 199.362 155.433 199.209 154.745 198.291C153.903 197.143 154.362 195.306 155.816 193.622C154.132 193.01 152.908 191.939 152.984 190.714C152.984 189.26 154.592 188.112 156.734 187.653C155.74 186.122 155.51 184.592 156.275 183.673C157.194 182.525 159.336 182.602 161.479 183.75C162.015 181.454 163.316 179.923 164.847 180C166.301 180.077 167.449 181.837 167.755 184.133C169.515 182.755 171.352 182.372 172.5 183.291C173.724 184.286 173.495 186.505 172.194 188.648C174.643 188.648 176.556 189.566 176.785 191.097C177.015 192.474 175.714 193.929 173.571 194.77C174.796 196.071 175.331 197.602 174.719 198.673C174.03 199.898 172.117 200.204 169.974 199.592Z" fill="#F7B2E8"/>
<path d="M174.72 198.597C175.332 197.526 174.796 195.995 173.572 194.694C175.638 193.852 177.015 192.398 176.786 191.02C176.556 189.49 174.567 188.571 172.194 188.571C173.495 186.429 173.725 184.209 172.5 183.214C171.429 182.296 169.515 182.755 167.755 184.056C167.449 181.76 166.301 180 164.847 179.924C163.393 179.847 162.015 181.454 161.48 183.674C159.413 182.526 157.194 182.372 156.276 183.597C155.51 184.515 155.74 186.046 156.735 187.577C154.592 188.036 152.985 189.184 152.985 190.638C152.985 191.862 154.133 192.934 155.817 193.546C154.362 195.23 153.903 197.143 154.745 198.214C155.434 199.133 156.888 199.286 158.495 198.827C158.342 200.434 158.801 201.811 159.873 202.347C161.097 202.883 162.628 202.194 163.929 200.663C165.23 202.73 167.143 203.878 168.521 203.265C169.669 202.806 170.128 201.276 169.975 199.515C172.118 200.204 174.031 199.898 174.72 198.597ZM164.388 195.077C162.475 195.077 160.944 193.546 160.944 191.633C160.944 189.719 162.475 188.189 164.388 188.189C166.301 188.189 167.832 189.719 167.832 191.633C167.832 193.546 166.301 195.077 164.388 195.077Z" fill="#FFCCF5"/>
<path d="M164.388 195.077C166.29 195.077 167.832 193.535 167.832 191.633C167.832 189.731 166.29 188.189 164.388 188.189C162.486 188.189 160.944 189.731 160.944 191.633C160.944 193.535 162.486 195.077 164.388 195.077Z" fill="#FFCCF5"/>
<path d="M164.388 195.077C166.29 195.077 167.832 193.535 167.832 191.633C167.832 189.731 166.29 188.189 164.388 188.189C162.486 188.189 160.944 189.731 160.944 191.633C160.944 193.535 162.486 195.077 164.388 195.077Z" fill="url(#paint1_linear)"/>
<path d="M269.923 200.434C270.076 198.674 268.469 196.99 266.02 195.995C268.393 193.623 269.311 190.867 268.163 189.107C266.939 187.194 263.648 187.117 260.357 188.725C260.893 185.051 259.821 181.913 257.678 181.301C255.765 180.765 253.469 182.449 251.939 185.281C250.178 182.296 247.576 180.689 245.51 181.454C243.52 182.219 242.678 185.128 243.291 188.495C239.77 188.189 236.786 189.337 236.173 191.48C235.714 193.24 237.015 195.153 239.234 196.607C237.474 197.908 236.25 199.439 235.867 200.893C235.714 201.582 235.714 202.347 236.02 202.959C236.709 204.566 238.852 205.332 241.53 205.102C240.995 206.862 240.918 208.546 241.224 209.847C241.301 210.153 241.377 210.383 241.53 210.612C241.837 211.225 242.219 211.684 242.831 211.99C244.362 212.832 246.505 212.066 248.342 210.306C249.107 212.679 250.561 214.209 252.321 214.286C254.234 214.362 255.918 212.449 256.76 209.694C257.449 210.153 258.214 210.536 258.903 210.842C260.969 209.388 262.882 207.934 264.796 206.403C264.566 205.791 264.337 205.102 263.954 204.49C267.321 204.107 269.77 202.5 269.923 200.434ZM260.816 206.48C259.821 207.628 257.602 207.322 255.535 205.944C254.923 207.781 253.775 209.005 252.551 209.005C251.403 209.005 250.408 207.934 249.872 206.327C248.571 207.551 247.117 208.01 246.046 207.475C244.821 206.786 244.515 204.873 245.127 202.73C243.291 202.883 241.837 202.424 241.301 201.276C240.765 199.975 241.76 198.214 243.597 196.913C241.99 195.918 241.071 194.541 241.377 193.316C241.76 191.862 243.826 191.02 246.352 191.327C245.893 189.031 246.505 187.041 247.882 186.505C249.26 185.969 251.02 187.117 252.245 189.107C253.316 187.194 254.847 185.969 256.224 186.352C257.755 186.811 258.444 188.954 258.061 191.556C260.357 190.485 262.576 190.561 263.418 191.786C264.183 193.01 263.571 194.847 261.964 196.454C263.648 197.143 264.719 198.291 264.566 199.515C264.49 200.969 262.806 202.041 260.51 202.347C261.505 203.954 261.658 205.561 260.816 206.48Z" fill="#F7B2E8"/>
<path d="M260.51 202.271C262.73 201.965 264.49 200.894 264.566 199.44C264.643 198.215 263.572 197.067 261.964 196.378C263.572 194.771 264.26 192.858 263.418 191.71C262.577 190.409 260.281 190.409 258.061 191.48C258.444 188.955 257.679 186.735 256.225 186.276C254.847 185.894 253.316 187.042 252.245 189.031C251.021 187.042 249.26 185.894 247.883 186.429C246.505 186.965 245.969 188.955 246.352 191.251C243.903 191.021 241.76 191.786 241.378 193.241C241.072 194.465 241.99 195.843 243.597 196.838C241.684 198.139 240.689 199.899 241.301 201.2C241.76 202.348 243.291 202.807 245.128 202.654C244.515 204.797 244.822 206.786 246.046 207.399C247.117 208.011 248.572 207.475 249.873 206.251C250.408 207.781 251.403 208.853 252.551 208.929C253.852 208.929 255 207.705 255.536 205.868C257.602 207.246 259.822 207.552 260.816 206.404C261.658 205.562 261.505 203.955 260.51 202.271ZM248.801 197.22C248.801 195.307 250.332 193.776 252.245 193.776C254.158 193.776 255.689 195.307 255.689 197.22C255.689 199.133 254.158 200.664 252.245 200.664C250.332 200.664 248.801 199.133 248.801 197.22Z" fill="#FFCCF5"/>
<path d="M252.245 200.663C254.147 200.663 255.689 199.121 255.689 197.219C255.689 195.317 254.147 193.775 252.245 193.775C250.343 193.775 248.801 195.317 248.801 197.219C248.801 199.121 250.343 200.663 252.245 200.663Z" fill="#FFCCF5"/>
<path d="M252.245 200.663C254.147 200.663 255.689 199.121 255.689 197.219C255.689 195.317 254.147 193.775 252.245 193.775C250.343 193.775 248.801 195.317 248.801 197.219C248.801 199.121 250.343 200.663 252.245 200.663Z" fill="url(#paint2_linear)"/>
<path d="M89.2349 179.848C80.5104 179.848 71.7859 186.506 68.0359 194.771L55.791 217.73C75.3829 227.45 99.3369 232.807 126.352 234.797L111.658 198.138C109.056 188.419 99.1839 179.848 89.2349 179.848Z" fill="#2A2F62"/>
<path d="M169.362 137.832C168.827 137.45 166.607 138.674 164.771 139.822C164.464 139.516 164.158 139.363 164.158 139.363L162.322 140.358L161.021 140.587C161.021 140.587 150.612 141.276 148.546 142.654C146.862 143.802 148.01 141.965 144.873 146.174C144.184 147.169 143.801 148.164 143.725 149.082L133.623 155.052L138.75 164.618L148.24 156.123V156.046C149.464 155.893 151.378 155.587 153.597 154.669C154.898 154.133 156.123 153.291 157.194 152.373C157.194 152.373 159.643 151.531 161.327 150.689C161.633 150.536 160.944 150.001 160.179 149.618C160.867 149.006 161.48 148.393 162.092 148.011C163.623 146.939 164.617 145.103 165.153 143.572C165.383 143.419 165.612 143.266 165.689 143.189C165.765 143.113 165.842 143.036 165.918 142.96C166.072 142.883 166.225 142.73 166.378 142.577C168.367 141.276 170.816 138.904 169.362 137.832Z" fill="#FFC8DA"/>
<path d="M153.98 142.041L150.918 144.796" stroke="#D29A97" stroke-width="0.75" stroke-miterlimit="10" stroke-linecap="round" stroke-linejoin="round"/>
<path d="M166.378 142.73C166.225 142.883 166.071 142.96 165.918 143.113L164.311 141.506L164.694 141.123L166.378 142.73Z" fill="#D29A97"/>
<path d="M158.419 143.955C158.419 143.955 160.638 144.873 159.337 146.021C155.663 149.312 152.679 150.919 152.679 150.919L158.419 143.955Z" fill="#D29A97"/>
<path d="M148.546 154.287L146.097 151.914C145.408 151.149 145.485 149.924 146.25 149.236L168.444 129.72C169.209 129.031 170.434 129.108 171.199 129.873L173.342 131.94L148.546 154.287Z" fill="#C6B9BD"/>
<path d="M148.01 153.828C147.322 153.062 147.398 151.838 148.164 151.072L170.357 131.557C171.123 130.868 172.347 130.945 173.113 131.71C173.801 132.475 173.725 133.7 172.959 134.465L150.766 154.057C149.924 154.669 148.699 154.593 148.01 153.828Z" fill="white"/>
<path d="M163.01 149.694C163.47 149.159 162.169 147.781 161.709 147.322C160.179 145.868 157.041 142.654 155.893 143.802C155.281 144.414 158.495 149.618 159.796 150.689C161.633 151.99 163.01 149.694 163.01 149.694Z" fill="#FFC8DA"/>
<path d="M165.153 147.629C165.612 147.093 164.311 145.716 163.852 145.256C162.321 143.802 159.184 140.588 158.036 141.736C157.423 142.348 160.561 146.634 162.092 148.241C163.393 149.695 165.153 147.629 165.153 147.629Z" fill="#FFC8DA"/>
<path d="M167.22 145.256C167.679 144.72 166.454 143.419 165.995 143.036C164.465 141.582 160.944 137.985 159.949 139.593C159.49 140.358 163.01 144.567 164.388 146.327C165.383 147.399 167.22 145.256 167.22 145.256Z" fill="#FFC8DA"/>
<path d="M158.266 142.271C160.255 146.097 163.011 148.699 163.011 148.699" stroke="#D29A97" stroke-width="0.75" stroke-miterlimit="10" stroke-linecap="round" stroke-linejoin="round"/>
<path d="M160.179 139.898C162.169 143.725 165.153 146.48 165.153 146.48" stroke="#D29A97" stroke-width="0.75" stroke-miterlimit="10" stroke-linecap="round" stroke-linejoin="round"/>
<path d="M156.046 144.107C156.046 144.107 158.801 150.306 161.097 150.919" stroke="#D29A97" stroke-width="0.75" stroke-miterlimit="10" stroke-linecap="round" stroke-linejoin="round"/>
<path d="M146.403 144.184L149.924 138.674C150.995 137.602 153.521 138.52 154.822 139.362C154.822 139.362 157.5 140.281 157.959 141.123C158.036 141.352 156.811 142.5 155.664 142.27C152.526 141.658 153.674 141.352 152.526 141.888C152.296 141.964 152.067 142.27 151.837 142.5C151.148 143.495 149.924 144.107 148.699 144.107H146.403V144.184Z" fill="#FFC8DA"/>
<path d="M152.373 140.435C152.373 140.435 154.515 143.802 157.883 141.2" stroke="#D29A97" stroke-width="0.75" stroke-miterlimit="10" stroke-linecap="round" stroke-linejoin="round"/>
<path d="M155.74 149.694L157.883 147.857" stroke="#D29A97" stroke-width="0.75" stroke-miterlimit="10" stroke-linecap="round" stroke-linejoin="round"/>
<path d="M140.893 162.628L134.311 154.287L136.454 153.368L142.424 161.327L140.893 162.628Z" fill="#D29A97"/>
<path d="M135.536 153.751L118.929 161.787C118.929 161.787 114.643 135.843 112.577 131.634C109.362 125.052 98.4949 123.445 98.4949 123.445C98.4949 123.445 98.7245 143.42 101.709 164.007C104.694 184.517 113.724 184.134 113.724 184.134C113.724 184.134 126.199 179.083 135.076 168.751C136.301 167.297 141.811 161.864 141.811 161.864C141.811 161.864 139.821 159.721 139.209 158.879C137.066 155.665 135.536 153.751 135.536 153.751Z" fill="url(#paint3_linear)"/>
<path d="M119.77 79.2095C119.77 90.1534 109.439 93.5972 98.4949 93.5972C87.551 93.5972 80.051 90.1534 80.051 79.2095C80.051 68.2656 88.9286 59.3115 99.949 59.3115C110.893 59.3115 119.77 68.2656 119.77 79.2095Z" fill="#2A2F62"/>
<path d="M120.306 75.6886C122.296 82.2703 119.082 87.857 115.791 88.2396C112.041 88.6988 108.444 84.7958 106.531 78.2141C104.541 71.6325 105.842 63.4437 109.515 64.2856C114.184 65.357 118.393 69.107 120.306 75.6886Z" fill="#2A2F62"/>
<path d="M59.1582 145.255L35.3572 194.617L43.2398 201.199L56.3266 168.979L59.1582 145.255Z" fill="url(#paint4_linear)"/>
<path d="M104.082 107.143C109.362 98.954 107.296 86.7857 107.296 86.7857C107.143 73.6989 101.48 81.6581 101.48 81.6581L102.245 68.1122L99.9491 59.3877C99.9491 59.3877 81.6583 59.9234 78.291 76.301C72.9338 102.551 69.7961 112.73 65.4338 116.25C64.2859 116.633 63.291 117.168 62.2961 117.781C58.8522 120.076 56.6328 123.75 56.6328 127.959C56.6328 134.847 62.6022 140.434 70.0257 140.434C77.4491 140.434 83.4185 134.847 83.4185 127.959C83.4185 123.98 81.4287 120.383 78.291 118.163L88.6226 118.393L95.2042 107.372V122.219L92.6022 126.122C92.6022 126.122 101.939 144.031 112.041 137.219C122.066 130.408 100.332 112.806 104.082 107.143ZM97.8828 102.857L100.638 98.3418L101.556 81.6581L102.015 102.092L97.8828 102.857Z" fill="#2A2F62"/>
<path d="M100.791 123.98C100.791 123.98 111.276 131.556 112.806 148.546C113.801 159.872 105.383 187.27 105.383 187.27C105.383 187.27 90.0767 196.99 72.3216 188.724L64.1328 152.372L67.3471 124.898L78.0614 120.842C78.0614 120.842 93.3675 121.301 98.7246 123.291C99.49 123.597 100.638 123.826 100.791 123.98Z" fill="url(#paint5_linear)"/>
<path d="M100.791 123.979C100.791 123.979 98.0357 127.193 88.5459 127.193C82.5765 127.193 71.6327 123.826 73.3929 122.678C76.8368 120.306 84.1837 116.173 89.6939 118.546C95.6633 121.148 100.791 123.979 100.791 123.979Z" fill="#FFC8DA"/>
<path d="M72.398 125.587C72.398 125.587 63.2908 122.373 55.7909 131.098C48.2909 139.745 37.1939 172.577 36.8878 180.766C36.5051 191.633 51.046 181.302 51.046 181.302L59.6939 169.286C59.6174 169.286 76.3776 129.796 72.398 125.587Z" fill="url(#paint6_linear)"/>
<path d="M96.8113 115.639C96.6582 118.776 97.7297 121.914 99.7195 123.674L86.7858 121.608L80.7399 120.613L78.2144 120.23C78.2144 120.23 81.7348 116.71 84.4899 111.047C86.6327 106.685 88.3929 101.098 87.8572 94.8223C87.8572 94.8223 91.9133 98.1131 95.2807 101.633L95.3572 101.71C96.5817 102.935 97.7297 104.236 98.5715 105.383C99.796 107.144 100.408 108.598 99.5664 109.363C97.7297 110.817 96.8878 113.19 96.8113 115.639Z" fill="#FFC8DA"/>
<path d="M99.4897 109.287C97.7295 110.894 96.8877 113.19 96.7346 115.639C96.0459 116.48 91.3775 119.159 86.6326 121.608C80.8163 124.593 87.2448 92.5264 87.2448 92.5264L95.1275 101.634L95.204 101.71L98.4183 105.384C99.7193 107.067 100.332 108.521 99.4897 109.287Z" fill="#D29A97"/>
<path d="M117.781 88.5458C116.326 91.8367 114.49 90.7652 113.418 94.4387C112.959 96.0458 112.27 98.3418 111.199 100.025C110.127 101.709 110.663 102.627 110.281 103.469C110.281 103.469 107.985 102.857 109.515 103.316C109.515 103.316 109.286 103.699 109.209 103.852C108.979 104.311 109.286 105.153 109.133 105.536C108.979 105.842 107.908 105.765 107.296 106.224C106.071 107.219 106.531 108.75 105.229 109.821C102.704 111.122 99.8723 108.98 97.0407 107.449C93.4438 105.459 90.306 101.633 89.6938 95.1275C89.2346 90.153 87.7805 85.5611 90.306 80.9693C95.5101 71.403 103.775 68.1887 110.74 71.9387C116.556 75.153 122.832 77.2193 117.781 88.5458Z" fill="#FFC8DA"/>
<path d="M115.791 94.0557C115.332 94.1322 114.796 93.9026 114.413 93.673C114.26 93.5965 114.031 93.4434 113.954 93.2904C113.878 93.0608 113.878 92.9077 113.648 92.7547C113.572 92.6781 113.495 92.6781 113.342 92.7547C112.653 93.1373 113.495 94.2087 113.878 94.4383C114.49 94.821 115.255 94.7445 115.867 94.2853C115.944 94.2087 115.944 94.0557 115.791 94.0557Z" fill="#231F20"/>
<path d="M114.031 88.7753C113.418 87.7804 111.964 87.0916 110.969 86.709C109.439 86.0967 107.755 86.1732 106.224 86.5559C105.842 86.6324 105.918 87.2447 106.301 87.1681C107.985 87.0151 109.439 87.6273 110.893 88.5457C111.735 89.0049 112.653 89.9232 113.648 89.6936C114.031 89.6171 114.26 89.0814 114.031 88.7753Z" fill="#231F20"/>
<path d="M111.199 92.6031C109.975 92.7562 108.75 92.5266 107.602 91.9143C107.143 91.6847 105.918 90.8429 105.612 89.9245C105.612 89.7715 105.689 89.7715 105.765 89.7715C106.225 90.0011 107.602 90.8429 108.138 91.0725C109.209 91.5317 110.051 91.9909 111.199 92.297C111.352 92.3735 111.276 92.5266 111.199 92.6031Z" fill="#231F20"/>
<path d="M109.481 93.4204C109.914 92.8469 109.964 92.155 109.593 91.8748C109.222 91.5947 108.57 91.8325 108.137 92.406C107.704 92.9794 107.654 93.6714 108.025 93.9516C108.396 94.2317 109.048 93.9939 109.481 93.4204Z" fill="#231F20"/>
<path d="M118.546 73.5465C117.475 69.2608 113.878 64.2098 105.23 63.1383C94.2859 61.7608 85.0256 66.3526 83.4185 77.22C83.1889 78.521 83.342 84.4904 83.342 86.021C83.5716 100.332 87.245 103.24 88.4695 91.1486C88.4695 91.1486 89.694 88.8526 91.8369 85.8679C92.5256 87.0159 92.9848 87.7047 92.9848 87.7047C92.9848 87.7047 100.714 83.3424 110.97 83.1128C120.995 82.9598 120.306 77.0669 118.546 73.5465Z" fill="#2A2F62"/>
<path d="M93.5969 89.925C93.9795 93.0627 92.5255 95.9709 90.9183 96.124C89.3112 96.277 87.7806 93.9046 87.3214 90.7668C86.9387 87.6291 87.9336 84.9505 89.4642 84.7209C90.9949 84.4913 93.2142 86.7872 93.5969 89.925Z" fill="#FFC8DA"/>
<path d="M214.821 101.097C206.403 99.0309 186.964 99.7197 182.832 116.403C179.235 130.944 188.495 136.837 188.495 136.837C188.495 136.837 186.964 141.352 181.377 144.261C188.418 147.016 198.367 144.337 201.199 141.352C224.847 147.245 232.5 139.209 234.872 129.643C238.622 114.184 225.842 103.852 214.821 101.097Z" fill="#F7B2E8"/>
<path d="M228.827 31.9139C220.179 32.6027 201.888 39.3374 203.189 56.4803C204.337 71.4037 214.975 74.0823 214.975 74.0823C214.975 74.0823 214.975 78.8272 210.536 83.419C218.112 83.8782 226.684 78.1384 228.444 74.465C252.704 72.6282 257.449 62.6027 256.76 52.8068C255.536 36.8884 240.153 31.0721 228.827 31.9139Z" fill="#F7B2E8"/>
<path d="M130.255 65.5873C129.49 75.3832 134.311 85.4087 158.572 87.2454C160.255 90.9189 168.903 96.6587 176.48 96.1995C172.041 91.6077 172.041 86.8628 172.041 86.8628C172.041 86.8628 182.679 84.1842 183.827 69.2607C185.128 52.1179 166.837 45.3067 158.189 44.6944C146.786 43.7761 131.48 49.5924 130.255 65.5873Z" fill="#F7B2E8"/>
<path d="M44.0818 194.159C44.0052 192.169 42.092 190.562 39.3369 189.72C41.5563 186.812 42.245 183.674 40.791 181.914C39.1838 180.001 35.5869 180.307 32.143 182.45C32.2961 178.317 30.6889 174.95 28.1634 174.49C25.944 174.108 23.6481 176.251 22.2705 179.541C19.8981 176.48 16.8369 175.026 14.694 176.098C12.5512 177.169 12.0154 180.536 13.1634 184.21C9.18381 184.286 6.04605 185.893 5.73993 188.342C5.4338 190.332 7.11748 192.322 9.71952 193.623C7.04095 196.072 5.81646 199.057 6.96442 201.047C7.95932 202.73 10.4848 203.342 13.3165 202.73C12.7042 206.327 13.5461 209.388 15.6889 210.307C17.5256 211.072 19.745 210.001 21.6583 207.858C22.8063 210.383 24.643 211.99 26.5563 211.837C28.6226 211.684 30.3063 209.388 30.9185 206.251C34.4389 208.011 37.9593 208.011 39.4134 206.021C40.5614 204.414 40.0256 201.812 38.2654 199.439C41.7093 198.521 44.1583 196.531 44.0818 194.159ZM26.0205 193.164C26.0205 193.24 25.944 193.24 25.944 193.317C25.6379 193.24 25.2552 193.24 24.9491 193.24C24.4134 193.317 23.9542 193.47 23.495 193.7C23.495 193.317 23.495 193.011 23.4185 192.705C23.5716 192.628 23.7246 192.475 23.8777 192.399C24.2603 192.628 24.7195 192.858 25.1022 192.934" fill="#F7B2E8"/>
<path d="M38.1891 193.852C38.1126 192.474 36.8115 191.326 34.8217 190.791C36.3523 188.801 36.8881 186.658 35.8166 185.434C34.6687 184.133 32.2197 184.362 29.7707 185.893C29.8472 182.985 28.7758 180.612 27.0156 180.306C25.485 180.076 23.8779 181.53 22.9595 183.826C21.3523 181.76 19.2095 180.689 17.7554 181.454C16.3013 182.219 15.9187 184.592 16.7605 187.117C14.0054 187.117 11.786 188.265 11.5564 189.949C11.3268 191.326 12.5513 192.704 14.3881 193.622C12.4748 195.306 11.633 197.372 12.4748 198.75C13.1636 199.898 14.8472 200.28 16.837 199.898C16.3779 202.423 16.9901 204.566 18.4442 205.178C19.7452 205.714 21.2758 204.949 22.6534 203.342C23.4187 205.102 24.7197 206.25 26.0207 206.097C27.4748 205.944 28.6228 204.413 29.0054 202.194C31.4544 203.418 33.9034 203.418 34.8983 202.117C35.7401 200.969 35.3574 199.209 34.133 197.602C36.5054 196.837 38.2656 195.459 38.1891 193.852Z" fill="#FFCCF5"/>
<path d="M24.184 196.76C26.2973 196.76 28.0105 195.047 28.0105 192.934C28.0105 190.821 26.2973 189.107 24.184 189.107C22.0706 189.107 20.3574 190.821 20.3574 192.934C20.3574 195.047 22.0706 196.76 24.184 196.76Z" fill="url(#paint7_linear)"/>
<path d="M70.8676 129.643C69.9492 134.158 69.9492 139.822 69.9492 139.822L73.5462 134.541C73.5462 134.541 71.1737 128.189 70.8676 129.643Z" fill="#D29A97"/>
<path d="M72.0922 122.985C91.378 148.929 71.0208 204.414 71.0208 204.414L62.832 206.174C75.23 171.812 79.2096 150.001 67.2708 124.975C66.7351 123.827 72.0922 122.985 72.0922 122.985Z" fill="url(#paint8_linear)"/>
<path d="M87.9335 93.9805C87.9335 93.9805 93.2142 119.389 84.5662 124.44C78.1376 128.19 74.4642 124.593 67.2703 124.975C64.7448 125.128 74.7703 118.164 74.7703 118.164C74.7703 118.164 86.1733 115.026 80.4335 100.333C79.8213 98.7254 87.9335 93.9805 87.9335 93.9805Z" fill="#2A2F62"/>
<path d="M49.5919 192.857L71.0205 204.414L59.7705 227.373C57.3215 232.73 50.7399 234.643 45.7654 231.429L30.9185 221.939L49.5919 192.857Z" fill="url(#paint9_linear)"/>
<path d="M38.9542 187.118L64.6684 200.97L49.745 226.455C48.1378 229.363 44.3878 230.281 41.5562 228.521L26.0205 218.955C23.2654 217.271 22.4235 213.598 24.1072 210.919L38.9542 187.118Z" fill="url(#paint10_linear)"/>
<path d="M66.046 147.245L57.4746 156.965L66.2756 162.398L72.1685 152.908L66.046 147.245Z" fill="#FFC8DA"/>
<path d="M66.2757 162.399L58.0869 156.276L59.3879 154.822L67.8063 159.873L66.2757 162.399Z" fill="#D29A97"/>
<path d="M58.7755 155.434L67.1939 160.791C67.1939 160.791 60.9949 177.781 49.6683 187.117C46.3775 189.872 42.2449 191.173 38.3418 189.107C36.5816 188.189 36.5051 185.051 36.5051 184.209C36.2755 177.551 41.0204 169.974 46.2245 165.842L58.7755 155.434Z" fill="url(#paint11_linear)"/>
<path d="M84.2603 138.215C83.8011 137.909 83.1889 137.909 82.8062 138.291L82.7297 138.368C82.7297 138.291 82.7297 138.291 82.7297 138.291L83.7246 136.99C83.8011 136.914 83.8011 136.914 83.8776 136.837C84.2603 136.301 84.2603 135.766 84.1072 135.307C83.8011 134.388 82.6531 133.929 81.6582 135L81.4287 135.23C81.4287 135.153 81.3521 135.153 81.3521 135.077L81.9644 134.388C81.9644 134.388 82.9593 132.628 82.8062 132.169C82.5766 131.633 82.194 131.174 81.5817 131.174L81.3521 129.643C81.3521 129.414 81.2756 129.261 81.1225 129.108L81.046 129.031C81.046 129.031 80.2042 127.807 78.6736 129.108L75.3062 132.169C75.0766 132.322 74.7705 132.551 74.5409 132.858C72.0154 135.842 72.245 135.307 71.1735 137.449C70.4848 138.827 65.8164 147.704 65.8164 147.704L68.8011 152.756C70.3317 153.827 74.847 152.22 76.2246 150.919C78.444 148.776 82.194 145.026 83.1889 142.577L84.6429 139.669C84.796 139.133 84.7195 138.521 84.2603 138.215Z" fill="#FFC8DA"/>
<path d="M81.3521 131.021L77.0664 135" stroke="#D29A97" stroke-width="0.75" stroke-miterlimit="10" stroke-linecap="round" stroke-linejoin="round"/>
<path d="M82.1941 134.465C80.587 136.455 78.9033 137.756 78.9033 137.756" stroke="#D29A97" stroke-width="0.75" stroke-miterlimit="10" stroke-linecap="round" stroke-linejoin="round"/>
<path d="M83.3418 137.985C81.7346 139.975 80.4336 141.123 80.4336 141.123" stroke="#D29A97" stroke-width="0.75" stroke-miterlimit="10" stroke-linecap="round" stroke-linejoin="round"/>
<path d="M201.276 125.357L200.434 110.816C200.434 110.816 199.515 110.51 198.98 110.357C197.832 110.051 198.061 107.066 199.515 107.296C199.975 107.372 203.418 107.985 203.418 107.985V113.724L221.556 119.235L216.888 128.648L201.276 125.357ZM201.276 127.117C205.102 128.036 203.725 133.852 200.128 133.01C195.842 131.862 197.526 126.199 201.276 127.117ZM213.98 130.332C217.806 131.25 216.429 137.066 212.832 136.224C208.469 135.153 210.23 129.413 213.98 130.332Z" fill="white"/>
<path d="M115.102 91.5309C112.424 94.6687 112.959 97.0411 113.878 99.6432C114.107 100.255 113.418 100.791 112.806 100.638L109.668 100.026L111.888 93.3677C111.964 93.3677 115.561 90.9952 115.102 91.5309Z" fill="#FFC8DA"/>
<path d="M107.602 102.551C106.454 101.939 109.056 103.24 109.362 103.852C109.592 104.388 109.515 105.46 109.056 105.613C108.597 105.689 107.372 105.613 107.296 103.623C107.219 102.169 106.99 101.786 106.99 101.786L107.602 102.551Z" fill="#F75E66"/>
<path d="M106.684 101.556C106.607 101.326 107.22 102.245 110.357 102.474C110.74 102.474 110.816 104.158 109.669 104.005C109.056 103.929 107.296 103.24 106.684 101.556Z" fill="#F75E66"/>
<path opacity="0.41" d="M100.786 98.4736C102.307 97.8389 102.96 95.9331 102.244 94.2168C101.528 92.5004 99.7144 91.6235 98.1931 92.2581C96.6717 92.8928 96.0189 94.7986 96.7349 96.515C97.4509 98.2313 99.2646 99.1082 100.786 98.4736Z" fill="#FF777A"/>
<path d="M109.133 99.873C109.133 99.873 113.572 100.562 112.653 100.715C111.199 100.944 110.51 101.098 110.51 101.098C109.898 101.174 109.286 100.638 109.133 99.873Z" fill="#D29A97"/>
<path d="M171.811 64.822C171.199 70.4853 163.24 74.5414 156.888 77.5261C151.684 72.8577 145.331 66.7353 146.173 60.9955C147.245 54.3373 155.204 53.4955 159.643 59.2353L161.02 61.3016L162.245 60.7659L161.326 58.1638C167.066 54.7965 172.423 58.5465 171.811 64.822Z" fill="white"/>
<path d="M240.536 61.99L231.276 58.6992L224.158 65.5104L224.464 55.638L215.816 50.9696L225.23 48.2145L226.99 38.4951L232.577 46.6839L242.296 45.3063L236.25 53.1125L240.536 61.99Z" fill="white"/>
<defs>
<linearGradient id="paint0_linear" x1="139.985" y1="238.096" x2="138.448" y2="225.796" gradientUnits="userSpaceOnUse">
<stop stop-color="#FBE86E"/>
<stop offset="0.5212" stop-color="#FBCD35"/>
<stop offset="1" stop-color="#FBB500"/>
</linearGradient>
<linearGradient id="paint1_linear" x1="161.626" y1="198.014" x2="165.885" y2="188.174" gradientUnits="userSpaceOnUse">
<stop stop-color="#FBE86E"/>
<stop offset="0.5212" stop-color="#FBCD35"/>
<stop offset="1" stop-color="#FBB500"/>
</linearGradient>
<linearGradient id="paint2_linear" x1="252.314" y1="204.313" x2="252.208" y2="193.479" gradientUnits="userSpaceOnUse">
<stop stop-color="#FBE86E"/>
<stop offset="0.5212" stop-color="#FBCD35"/>
<stop offset="1" stop-color="#FBB500"/>
</linearGradient>
<linearGradient id="paint3_linear" x1="98.4949" y1="153.79" x2="141.888" y2="153.79" gradientUnits="userSpaceOnUse">
<stop offset="0.8359" stop-color="#FF777A"/>
<stop offset="0.8859" stop-color="#FF7D7B"/>
<stop offset="0.951" stop-color="#FF8D7F"/>
<stop offset="1" stop-color="#FF9E82"/>
</linearGradient>
<linearGradient id="paint4_linear" x1="60.0828" y1="157.226" x2="36.3607" y2="199.952" gradientUnits="userSpaceOnUse">
<stop stop-color="#424DD2"/>
<stop offset="0.2907" stop-color="#303696"/>
</linearGradient>
<linearGradient id="paint5_linear" x1="64.1328" y1="156.449" x2="112.888" y2="156.449" gradientUnits="userSpaceOnUse">
<stop stop-color="#FF777A"/>
<stop offset="0.305" stop-color="#FF7D7B"/>
<stop offset="0.7016" stop-color="#FF8D7F"/>
<stop offset="1" stop-color="#FF9E82"/>
</linearGradient>
<linearGradient id="paint6_linear" x1="54.7457" y1="167.22" x2="55.3681" y2="127.76" gradientUnits="userSpaceOnUse">
<stop stop-color="#FF777A"/>
<stop offset="0.2522" stop-color="#FF7D7B"/>
<stop offset="0.5803" stop-color="#FF8D7F"/>
<stop offset="0.827" stop-color="#FF9E82"/>
</linearGradient>
<linearGradient id="paint7_linear" x1="25.16" y1="200.743" x2="23.6606" y2="188.748" gradientUnits="userSpaceOnUse">
<stop stop-color="#FBE86E"/>
<stop offset="0.5212" stop-color="#FBCD35"/>
<stop offset="1" stop-color="#FBB500"/>
</linearGradient>
<linearGradient id="paint8_linear" x1="64.6287" y1="122.097" x2="73.3021" y2="190.974" gradientUnits="userSpaceOnUse">
<stop stop-color="#303696"/>
</linearGradient>
<linearGradient id="paint9_linear" x1="30.9185" y1="212.927" x2="71.0205" y2="212.927" gradientUnits="userSpaceOnUse">
<stop stop-color="#424DD2"/>
<stop offset="0.2907" stop-color="#303696"/>
</linearGradient>
<linearGradient id="paint10_linear" x1="23.3111" y1="208.267" x2="64.687" y2="208.267" gradientUnits="userSpaceOnUse">
<stop stop-color="#424DD2"/>
<stop offset="0.9881" stop-color="#303696"/>
</linearGradient>
<linearGradient id="paint11_linear" x1="42.3064" y1="185.747" x2="59.4327" y2="159.502" gradientUnits="userSpaceOnUse">
<stop offset="0.2757" stop-color="#FF9E82"/>
<stop offset="0.4378" stop-color="#FF9E82"/>
</linearGradient>
</defs>
</svg>
