<svg width="108" height="25" viewBox="0 0 108 25" fill="none" xmlns="http://www.w3.org/2000/svg">
<path d="M93.7398 1.47099L90.9984 18.9761C90.9177 19.2901 91.2403 19.6041 91.5628 19.6041H94.3848C94.8686 19.6041 95.2718 19.2901 95.3524 18.8191L98.0938 1.62799C98.1745 1.31399 97.8519 1 97.5294 1H94.3848C93.9817 1 93.7398 1.23549 93.7398 1.47099Z" fill="#2890C3"/>
<path d="M85.4349 13.4815C85.1124 15.287 83.661 16.543 81.8065 16.543C80.839 16.543 80.1133 16.229 79.6295 15.6795C79.1457 15.13 78.9845 14.345 79.1457 13.403C79.4683 11.5976 80.9196 10.3416 82.7741 10.3416C83.661 10.3416 84.4673 10.6556 84.9511 11.2051C85.3543 11.7546 85.5155 12.6181 85.4349 13.4815ZM89.9502 7.20168H86.725C86.4831 7.20168 86.2412 7.43718 86.1606 7.67267L85.9993 8.61465L85.7574 8.30066C85.0317 7.28018 83.4998 6.96619 81.9678 6.96619C78.4201 6.96619 75.3561 9.63513 74.7111 13.403C74.3886 15.287 74.8723 17.0925 75.9205 18.3484C76.8881 19.5259 78.3394 19.9969 80.0327 19.9969C82.9354 19.9969 84.548 18.1914 84.548 18.1914L84.3867 19.0549C84.3061 19.3689 84.6286 19.6829 84.9511 19.6829H87.8538C88.3376 19.6829 88.7407 19.3689 88.8214 18.8979L90.5952 7.90817C90.5146 7.51567 90.2727 7.20168 89.9502 7.20168Z" fill="#2890C3"/>
<path d="M70.5185 7.28023C70.1154 9.71368 68.2609 9.71368 66.487 9.71368H65.4388L66.1645 5.23927C66.2451 5.00378 66.4064 4.76828 66.7289 4.76828H67.2127C68.4222 4.76828 69.551 4.76828 70.196 5.47477C70.5185 5.86726 70.5992 6.41675 70.5185 7.28023ZM69.7122 1.00037H62.9393C62.4555 1.00037 62.0524 1.31436 61.9717 1.78535L59.2303 18.9765C59.1497 19.2905 59.4722 19.6045 59.7947 19.6045H63.2618C63.5843 19.6045 63.8262 19.369 63.9069 19.055L64.7132 14.1881C64.7938 13.7171 65.1969 13.4031 65.6807 13.4031H67.8577C72.2924 13.4031 74.8726 11.2836 75.5982 7.04474C75.9208 5.16078 75.5982 3.74781 74.7113 2.72733C73.6631 1.62835 71.9699 1.00037 69.7122 1.00037Z" fill="#2890C3"/>
<path d="M58.9076 7.20142H55.6824C55.3598 7.20142 55.1179 7.35841 54.8761 7.59391L50.3608 14.1878L48.4256 7.9079C48.345 7.51541 47.9419 7.27991 47.5387 7.27991H44.3135C43.9104 7.27991 43.6685 7.67241 43.7491 7.9864L47.2968 18.4267L43.9104 23.1366C43.6685 23.5291 43.9104 24.0001 44.3941 24.0001H47.6193C47.9419 24.0001 48.1838 23.8431 48.4256 23.6076L59.3913 8.0649C59.6332 7.7509 59.3913 7.20142 58.9076 7.20142Z" fill="#28346A"/>
<path d="M37.1374 13.4812C36.8149 15.2866 35.3636 16.5426 33.5091 16.5426C32.5415 16.5426 31.8158 16.2286 31.332 15.6791C30.8483 15.1296 30.687 14.3447 30.8483 13.4027C31.1708 11.5972 32.6221 10.3413 34.4766 10.3413C35.3636 10.3413 36.1699 10.6552 36.6536 11.2047C37.0568 11.7542 37.2987 12.6177 37.1374 13.4812ZM41.6527 7.20132H38.4275C38.1856 7.20132 37.9437 7.43682 37.8631 7.67231L37.7018 8.53579L37.4599 8.2218C36.8149 7.27982 35.2023 6.88733 33.6703 6.88733C30.1226 6.88733 27.0586 9.55627 26.4136 13.3242C26.0911 15.2081 26.5749 17.0136 27.6231 18.2696C28.5906 19.4471 30.042 19.918 31.7352 19.918C34.6379 19.918 36.2505 18.1126 36.2505 18.1126L36.0892 18.9761C36.0086 19.2901 36.3311 19.6041 36.6536 19.6041H39.5563C40.0401 19.6041 40.4433 19.2901 40.5239 18.8191L42.2978 7.82931C42.2978 7.51532 41.9752 7.20132 41.6527 7.20132Z" fill="#28346A"/>
<path d="M22.2201 7.28023C21.817 9.71368 19.9625 9.71368 18.1886 9.71368H17.2211L17.9467 5.23927C17.9467 4.92528 18.1886 4.68979 18.4305 4.68979H18.9143C20.1237 4.68979 21.2526 4.68979 21.8976 5.39627C22.2201 5.86726 22.3814 6.41675 22.2201 7.28023ZM21.4138 1.00037H14.7215C14.2377 1.00037 13.8346 1.31436 13.754 1.78535L11.0125 18.9765C10.9319 19.2905 11.2544 19.6045 11.5769 19.6045H14.8022C15.2859 19.6045 15.6891 19.2905 15.7697 18.8195L16.4954 14.1881C16.576 13.7171 16.9792 13.4031 17.4629 13.4031H19.64C24.0746 13.4031 26.6548 11.2836 27.3805 7.04474C27.703 5.16078 27.3805 3.74781 26.4935 2.72733C25.4453 1.62835 23.7521 1.00037 21.4138 1.00037Z" fill="#28346A"/>
</svg>
