<svg width="123" height="123" viewBox="0 0 123 123" fill="none" xmlns="http://www.w3.org/2000/svg">
<g clip-path="url(#clip0)">
<path d="M44.9288 94.7884C44.9288 94.7884 38.9881 61.5523 38.1544 57.9987C43.9908 57.9987 60.562 46.0839 64.4182 21C73.6939 22.1497 77.029 27.1665 76.2995 35.2142C76.091 37.7226 75.0488 46.711 75.0488 46.711L70.2546 48.0697L70.6715 51.1006C70.6715 51.1006 95.2678 51.7277 100.27 51.8323C103.501 75.4529 95.9974 89.9806 80.8852 100.746C72.2348 98.8645 44.9288 94.7884 44.9288 94.7884ZM22.7296 102L22 55.0723H29.6082L41.9063 101.477L22.7296 102Z" fill="#8A49F3"/>
</g>
<defs>
<clipPath id="clip0">
<rect width="79" height="81" fill="white" transform="translate(22 21)"/>
</clipPath>
</defs>
</svg>
