<svg width="123" height="123" viewBox="0 0 123 123" fill="none" xmlns="http://www.w3.org/2000/svg">
<path d="M60.9773 10L47.7338 48.1754L7 48.9708L39.5068 73.4269L27.6679 112L60.9773 88.9357L94.4873 112L82.6484 73.4269L115.155 48.9708L74.4214 48.1754L60.9773 10Z" fill="#8A49F3"/>
<path d="M53.8086 51.4844H69.5312V55.1953C68.7891 55.0391 68.0404 54.9349 67.2852 54.8828C66.543 54.8307 65.7617 54.8047 64.9414 54.8047H57.4219V62.0312C57.7214 61.9922 58.151 61.9531 58.7109 61.9141C59.2839 61.862 59.9284 61.8359 60.6445 61.8359C62.0508 61.8359 63.3594 62.0573 64.5703 62.5C65.7943 62.9297 66.862 63.5417 67.7734 64.3359C68.6849 65.1172 69.401 66.0547 69.9219 67.1484C70.4427 68.2292 70.7031 69.4206 70.7031 70.7227C70.7031 72.2461 70.4362 73.6133 69.9023 74.8242C69.3815 76.0352 68.6458 77.0638 67.6953 77.9102C66.7578 78.7435 65.638 79.3815 64.3359 79.8242C63.0469 80.2669 61.6406 80.4883 60.1172 80.4883C59.362 80.4883 58.6523 80.4492 57.9883 80.3711C57.3372 80.306 56.7057 80.1888 56.0938 80.0195C55.4948 79.8633 54.9023 79.6549 54.3164 79.3945C53.7435 79.1341 53.151 78.8151 52.5391 78.4375L53.125 74.3359C53.776 74.8698 54.388 75.306 54.9609 75.6445C55.5469 75.9831 56.1198 76.25 56.6797 76.4453C57.2526 76.6406 57.832 76.7773 58.418 76.8555C59.0169 76.9336 59.6615 76.9727 60.3516 76.9727C61.3281 76.9727 62.2201 76.8359 63.0273 76.5625C63.8477 76.2891 64.5508 75.8919 65.1367 75.3711C65.7227 74.8503 66.1784 74.2122 66.5039 73.457C66.8294 72.6888 66.9922 71.8099 66.9922 70.8203C66.9922 69.8307 66.7708 68.9909 66.3281 68.3008C65.8854 67.6107 65.319 67.0508 64.6289 66.6211C63.9518 66.1784 63.1966 65.8594 62.3633 65.6641C61.543 65.4557 60.7422 65.3516 59.9609 65.3516C59.4401 65.3516 58.9388 65.3776 58.457 65.4297C57.9883 65.4688 57.5065 65.5404 57.0117 65.6445C56.5299 65.7357 56.0221 65.8659 55.4883 66.0352C54.9674 66.1914 54.4076 66.3867 53.8086 66.6211V51.4844Z" fill="white"/>
</svg>
