<svg width="150" height="150" viewBox="0 0 150 150" fill="none" xmlns="http://www.w3.org/2000/svg">
<circle cx="75" cy="75" r="75" fill="#F8F8F8"/>
<path d="M67 100L90 76L67 52" stroke="black" stroke-width="1.4173" stroke-miterlimit="10"/>
</svg>
